<?xml version="1.0" encoding="utf-8"?>
<!-- Generator: Adobe Illustrator 19.0.0, SVG Export Plug-In . SVG Version: 6.00 Build 0)  -->
<svg version="1.1" xmlns="http://www.w3.org/2000/svg" xmlns:xlink="http://www.w3.org/1999/xlink" x="0px" y="0px"
	 viewBox="-329 131 300 300" style="enable-background:new -329 131 300 300;" xml:space="preserve">
<style type="text/css">
	.st0{display:none;}
	.st1{display:inline;}
	.st2{fill:none;}
	.st3{fill:#4168B1;}
	.st4{fill:none;stroke:#4168B1;stroke-width:5;stroke-miterlimit:10;}
</style>
<g id="Layer_1" class="st0">
	<g id="XMLID_4_" class="st1">
		<path id="XMLID_209_" class="st2" d="M-232.3,280.5c0-12.2-10-22.1-22.2-22.1c-12.2,0-22.2,9.9-22.2,22.1s10,22.1,22.2,22.1
			C-242.2,302.6-232.3,292.7-232.3,280.5z"/>
		<g id="XMLID_184_">
			<path id="XMLID_187_" class="st2" d="M-232.6,306.7h-21.9h-21.9c-13.5,0-25.4,11.6-25.4,25.2v3.7c6,5.7,13,10.4,20,13.8v-15.7h5
				v17.5c7,2.6,14.7,3.9,22.5,3.9s15.5-1.4,22.5-3.9v-17.5h4v15.7c8-3.4,14-8.1,19-13.8v-3.7C-208.8,318.3-219.1,306.7-232.6,306.7z
				"/>
			<path id="XMLID_201_" class="st2" d="M-232.3,280.5c0-12.2-10-22.1-22.2-22.1c-12.2,0-22.2,9.9-22.2,22.1s10,22.1,22.2,22.1
				C-242.2,302.6-232.3,292.7-232.3,280.5z"/>
			<g id="XMLID_188_">
				<path id="XMLID_198_" class="st2" d="M-232.6,306.7h-21.9h-21.9c-13.5,0-25.4,11.6-25.4,25.2v3.7c6,5.7,13,10.4,20,13.8v-15.7h5
					v17.5c7,2.6,14.7,3.9,22.5,3.9s15.5-1.4,22.5-3.9v-17.5h4v15.7c8-3.4,14-8.1,19-13.8v-3.7C-208.8,318.3-219.1,306.7-232.6,306.7
					z"/>
				<path id="XMLID_199_" class="st2" d="M-232.3,280.5c0-12.2-10-22.1-22.2-22.1c-12.2,0-22.2,9.9-22.2,22.1s10,22.1,22.2,22.1
					C-242.2,302.6-232.3,292.7-232.3,280.5z"/>
				<path id="XMLID_200_" class="st2" d="M-203.7,331.3c0,0.2,0,0.4,0,0.6C-203.7,331.7-203.7,331.5-203.7,331.3L-203.7,331.3z"/>
				<path id="XMLID_202_" class="st2" d="M-254.5,225.3c-35.8,0-64.9,29.1-64.9,64.9c0,15.2,5.3,29.3,14.1,40.3l0,0v0.1
					c0.9-15.2,13.6-28,29-28h7.1c-7.2-5-11.9-12.9-11.9-22.2c0-14.7,12-26.6,26.7-26.6s26.7,11.9,26.7,26.6
					c0,9.3-4.7,17.1-11.9,22.1h7.1c15.3,0,28,12.7,29.1,27.7c8.7-11.1,14-25,14-40.2C-189.6,254.4-218.7,225.3-254.5,225.3z"/>
				<path id="XMLID_212_" class="st3" d="M-254.5,220.8c-38.2,0-69.4,31.1-69.4,69.4c0,18.2,7,34.7,18.5,47.1c1.3,1.5,3.2,3,4.5,4.4
					c5.7,5.2,12.4,9.4,19.7,12.5c1.5,0.6,2.9,1.2,4.5,1.7c7,2.4,14.5,3.7,22.3,3.7s15.2-1.3,22.2-3.6c1.5-0.5,3-1.1,4.5-1.7
					c7.3-3,14-7.3,19.7-12.5c1.3-1.4,3.2-2.9,4.5-4.4c11.4-12.4,18.5-28.9,18.5-47.1C-185.1,251.9-216.3,220.8-254.5,220.8z
					 M-208.8,335.5c-5,5.8-11,10.5-19,13.8v-15.6h-4v17.5c-7,2.5-14.7,3.9-22.5,3.9s-15.5-1.4-22.5-3.9v-17.5h-5v15.6
					c-7-3.4-14-8.1-20-13.8v-3.7c0-13.5,11.9-25.2,25.4-25.2h21.9h21.9c13.5,0,23.8,11.6,23.8,25.2V335.5L-208.8,335.5z
					 M-276.7,280.5c0-12.2,10-22.1,22.2-22.1s22.2,9.9,22.2,22.1s-10,22.1-22.2,22.1S-276.7,292.8-276.7,280.5z M-232.6,302.7h-7.1
					c7.2-5,11.9-12.9,11.9-22.1c0-14.7-12-26.6-26.7-26.6s-26.7,11.9-26.7,26.6c0,9.3,4.7,17.1,11.9,22.1h-7.1
					c-15.4,0-28,12.8-29,28v-0.1l0,0c-8.8-11.1-14.1-25.1-14.1-40.3c0-35.8,29.1-64.9,64.9-64.9s64.9,29.1,64.9,64.9
					c0,15.2-5.2,29.2-14,40.2C-204.6,315.4-217.3,302.7-232.6,302.7z"/>
			</g>
		</g>
	</g>
	<g id="XMLID_1_" class="st1">
		<path id="XMLID_7_" class="st2" d="M-115.5,355.7H-130c-9.3,0-17.6,5.5-21.8,13.2c7.1,8,17.5,13,29,13s21.9-5.1,29-13.1
			c0,0,0,0.1,0.1,0.1C-97.8,361.2-106.2,355.7-115.5,355.7z"/>
		<path id="XMLID_25_" class="st2" d="M-122.5,320.7c-8.2,0-14.9,6.7-14.9,14.9c0,8.2,6.7,14.9,14.9,14.9s14.9-6.7,14.9-14.9
			C-107.6,327.4-114.3,320.7-122.5,320.7z"/>
		<path id="XMLID_26_" class="st2" d="M-122.7,304.2c-21.4,0-38.8,17.4-38.8,38.8c0,8.2,2.5,15.7,6.8,22l0,0
			c4.5-7,12.2-12.5,20.8-13.8c-4.8-3.5-8-9.2-8-15.6c0-10.7,8.7-19.3,19.3-19.3s19.3,8.7,19.3,19.3c0,6.4-3.2,12.2-8.1,15.7
			c8.6,1.4,16.1,6.7,20.5,13.7l0,0c4.3-6.3,6.8-13.8,6.8-22C-83.9,321.6-101.3,304.2-122.7,304.2z"/>
		<path id="XMLID_30_" class="st3" d="M-122.7,299.7c-23.9,0-43.3,19.4-43.3,43.3c0,10,3.4,19.1,9.1,26.4c1.1,1.4,2.2,2.7,3.4,3.9
			c7.9,8,18.8,13,30.8,13c12.1,0,23-5,30.8-13c1.2-1.2,2.3-2.5,3.4-3.9c5.7-7.3,9.1-16.5,9.1-26.4
			C-79.5,319.1-98.9,299.7-122.7,299.7z M-122.7,381.8c-11.5,0-21.9-4.9-29-12.9c4.2-7.7,12.4-13.2,21.8-13.2h14.5
			c9.3,0,17.7,5.5,21.8,13.1c0,0,0,0-0.1,0C-100.8,376.8-111.2,381.8-122.7,381.8z M-122.5,350.4c-8.2,0-14.9-6.7-14.9-14.9
			c0-8.2,6.7-14.9,14.9-14.9s14.9,6.7,14.9,14.9C-107.6,343.7-114.3,350.4-122.5,350.4z M-90.8,365L-90.8,365
			c-4.4-7-11.9-12.4-20.5-13.7c4.9-3.5,8.1-9.2,8.1-15.7c0-10.7-8.7-19.3-19.3-19.3s-19.3,8.7-19.3,19.3c0,6.4,3.1,12.1,8,15.6
			c-8.7,1.3-16.3,6.8-20.8,13.8l0,0c-4.3-6.3-6.8-13.8-6.8-22c0-21.4,17.4-38.8,38.8-38.8s38.8,17.4,38.8,38.8
			C-83.9,351.1-86.5,358.7-90.8,365z"/>
	</g>
	<g id="XMLID_3_" class="st1">
		<path id="XMLID_20_" class="st2" d="M-68.2,239.7h-14.5c-9.3,0-17.6,5.7-21.8,13.4c7.1,8,17.5,13,29,13s21.9-5.1,29-13.1
			c0,0,0,0,0.1-0.1C-50.5,245.4-58.9,239.7-68.2,239.7z"/>
		<path id="XMLID_19_" class="st2" d="M-75.2,205c-8.2,0-14.9,6.7-14.9,14.9s6.7,14.9,14.9,14.9s14.9-6.7,14.9-14.9
			C-60.3,211.7-67,205-75.2,205z"/>
		<path id="XMLID_15_" class="st2" d="M-75.4,188.5c-21.4,0-38.8,17.4-38.8,38.8c0,8.2,2.5,15.7,6.8,22l0,0
			c4.5-7,12.2-12.5,20.8-13.8c-4.8-3.5-8-9.2-8-15.6c0-10.7,8.7-19.3,19.3-19.3s19.3,8.7,19.3,19.3c0,6.4-3.2,12.2-8.1,15.7
			c8.6,1.4,16.1,6.7,20.5,13.7l0,0c4.3-6.3,6.8-13.8,6.8-22C-36.6,205.9-54,188.5-75.4,188.5z"/>
		<path id="XMLID_8_" class="st3" d="M-75.4,184c-23.9,0-43.3,19.4-43.3,43.3c0,10,3.4,19.1,9.1,26.4c1.1,1.4,2.2,2.7,3.4,3.9
			c7.9,8,18.8,13,30.8,13c12.1,0,23-5,30.8-13c1.2-1.2,2.3-2.5,3.4-3.9c5.7-7.3,9.1-16.5,9.1-26.4C-32.2,203.4-51.6,184-75.4,184z
			 M-75.4,266.1c-11.5,0-21.9-5-29-13c4.2-7.7,12.4-13.4,21.8-13.4h14.5c9.3,0,17.7,5.7,21.8,13.3c0,0,0,0-0.1,0.1
			C-53.5,261.1-63.9,266.1-75.4,266.1z M-75.2,234.7c-8.2,0-14.9-6.7-14.9-14.9s6.7-14.9,14.9-14.9s14.9,6.7,14.9,14.9
			C-60.3,228-67,234.7-75.2,234.7z M-43.4,249.2C-43.4,249.3-43.5,249.3-43.4,249.2c-4.4-7-11.9-12.4-20.5-13.7
			c4.9-3.5,8.1-9.2,8.1-15.7c0-10.7-8.7-19.3-19.3-19.3s-19.3,8.7-19.3,19.3c0,6.4,3.1,12.1,8,15.6c-8.7,1.3-16.3,6.8-20.8,13.8l0,0
			c-4.3-6.3-6.8-13.8-6.8-22c0-21.4,17.4-38.8,38.8-38.8s38.8,17.4,38.8,38.8C-36.6,235.4-39.1,243-43.4,249.2z"/>
	</g>
	<g id="XMLID_2_" class="st1">
		
			<rect id="XMLID_44_" x="-157.7" y="206.4" transform="matrix(0.2726 0.9621 -0.9621 0.2726 124.8393 329.369)" class="st3" width="4.5" height="81.6"/>
	</g>
	<g id="XMLID_21_" class="st1">
		
			<rect id="XMLID_43_" x="-192.5" y="308" transform="matrix(0.8609 0.5087 -0.5087 0.8609 133.9041 130.7321)" class="st3" width="40.6" height="4.5"/>
	</g>
</g>
<g id="Layer_2" class="st0">
	<g class="st1">
		<path class="st2" d="M-247.4,286c0.8,0.2,1.6,0.3,2.5,0.3c0.9,0,1.7-0.1,2.5-0.3c4-0.9,7.1-4.1,8-8h0.5h4.6h0.5
			c1.1,4.8,5.4,8.3,10.5,8.3s9.4-3.6,10.5-8.3h0.5h4.6h0.5c1.1,4.8,5.4,8.3,10.5,8.3s9.4-3.6,10.5-8.3h0.5h4.6h0.5
			c1.1,4.8,5.4,8.3,10.5,8.3s9.4-3.6,10.5-8.3h0.5h4.6h0.5c1.1,4.8,5.4,8.3,10.5,8.3s9.4-3.6,10.5-8.3h0.5h4.6h0.5
			c0.9,4,4.1,7.1,8,8c0.8,0.2,1.6,0.3,2.5,0.3c0.9,0,1.7-0.1,2.5-0.3c4-1,7.1-4.1,8.1-8.1c0.2-0.8-2.6-6.1-5.6-12l-3.4-6.1
			l-13.6-24.5h-109.3l-13.4,24.5l-3.3,6l-3.5,6.3l-0.4,0.8h0.1l-2.1,5C-254.6,281.9-251.4,285-247.4,286z"/>
		<path class="st2" d="M-111.3,348.2h-2.8v-5v-6.3v-45.8c-4.5-0.7-8.4-3.4-10.8-7.1c-2.8,4.4-7.7,7.3-13.3,7.3s-10.5-2.9-13.3-7.3
			c-2.8,4.4-7.7,7.3-13.3,7.3c-5.6,0-10.5-2.9-13.3-7.3c-2.8,4.4-7.7,7.3-13.3,7.3c-5.6,0-10.5-2.9-13.3-7.3
			c-2.8,4.4-7.7,7.3-13.3,7.3s-10.5-2.9-13.3-7.3c-2.4,3.7-6.3,6.4-10.8,7.1v44.6v7.5v5h-2.2h-2.8h-58.4c24.1,45.8,72.2,77,127.4,77
			s103.3-31.3,127.4-77h-58H-111.3z M-180.6,322.9h-9.3v-9.3h9.3V322.9z M-180.6,309.6h-9.3v-9.3h9.3V309.6z M-166.6,322.9h-9.3
			v-9.3h9.3V322.9z M-166.6,309.6h-9.3v-9.3h9.3V309.6z"/>
		<path class="st2" d="M-178.5,137.5c-79.3,0-143.9,64.5-143.9,143.9c0,22.1,5,43.1,14,61.9h61v-52.1c-6.8-1.1-12.1-6.4-13.1-13.2
			c-0.1-0.7-0.2-1.5-0.2-2.2l7.4-13.5l17.5-31.9h115.2l17.7,32l7.1,12.9c0,0.1,0,0.2,0,0.3c0,0.8-0.1,1.6-0.2,2.4
			c-1,6.8-6.4,12.1-13.1,13.2v52.1h60.5c9-18.7,14-39.7,14-61.9C-34.6,202-99.2,137.5-178.5,137.5z"/>
		<path class="st3" d="M-178.5,132.5c-82.1,0-148.9,66.8-148.9,148.9c0,22.1,4.8,43,13.5,61.9c0.8,1.7,1.6,3.4,2.4,5
			c24.5,48.6,74.9,82,133,82s108.5-33.4,133-82c0.8-1.6,1.6-3.3,2.4-5c8.6-18.8,13.5-39.8,13.5-61.9
			C-29.6,199.3-96.4,132.5-178.5,132.5z M-178.5,425.2c-55.2,0-103.3-31.3-127.4-77h58.4h2.8h2.2v-5v-7.5v-44.6
			c4.5-0.7,8.4-3.4,10.8-7.1c2.8,4.4,7.7,7.3,13.3,7.3s10.5-2.9,13.3-7.3c2.8,4.4,7.7,7.3,13.3,7.3c5.6,0,10.5-2.9,13.3-7.3
			c2.8,4.4,7.7,7.3,13.3,7.3c5.6,0,10.5-2.9,13.3-7.3c2.8,4.4,7.7,7.3,13.3,7.3s10.5-2.9,13.3-7.3c2.4,3.7,6.3,6.4,10.8,7.1v45.8
			v6.3v5h2.8h2.2h58C-75.3,393.9-123.3,425.2-178.5,425.2z M-253.6,272.9l0.4-0.8l3.5-6.3l3.3-6l13.4-24.5h109.3l13.6,24.5l3.4,6.1
			c3,5.9,5.8,11.2,5.6,12c-0.9,4-4.1,7.2-8.1,8.1c-0.8,0.2-1.6,0.3-2.5,0.3c-0.9,0-1.7-0.1-2.5-0.3c-4-0.9-7.1-4.1-8-8h-0.5h-4.6
			h-0.5c-1.1,4.8-5.4,8.3-10.5,8.3s-9.4-3.6-10.5-8.3h-0.5h-4.6h-0.5c-1.1,4.8-5.4,8.3-10.5,8.3s-9.4-3.6-10.5-8.3h-0.5h-4.6h-0.5
			c-1.1,4.8-5.4,8.3-10.5,8.3s-9.4-3.6-10.5-8.3h-0.5h-4.6h-0.5c-1.1,4.8-5.4,8.3-10.5,8.3s-9.4-3.6-10.5-8.3h-0.5h-4.6h-0.5
			c-0.9,4-4.1,7.1-8,8c-0.8,0.2-1.6,0.3-2.5,0.3c-0.9,0-1.7-0.1-2.5-0.3c-4-1-7.1-4.1-8.1-8.1l2.1-5H-253.6z M-48.6,343.2h-60.5
			v-52.1c6.8-1.1,12.1-6.4,13.1-13.2c0.1-0.8,0.2-1.6,0.2-2.4c0-0.1,0-0.2,0-0.3l-7.1-12.9l-17.7-32h-115.2l-17.5,31.9l-7.4,13.5
			c0,0.8,0.1,1.5,0.2,2.2c1,6.8,6.4,12.1,13.1,13.2v52.1h-61c-9-18.7-14-39.7-14-61.9c0-79.3,64.5-143.9,143.9-143.9
			S-34.6,202-34.6,281.3C-34.6,303.5-39.7,324.4-48.6,343.2z"/>
		<rect x="-189.9" y="300.3" class="st3" width="9.3" height="9.3"/>
		<rect x="-175.9" y="300.3" class="st3" width="9.3" height="9.3"/>
		<rect x="-189.9" y="313.6" class="st3" width="9.3" height="9.3"/>
		<rect x="-175.9" y="313.6" class="st3" width="9.3" height="9.3"/>
	</g>
	<g class="st1">
		<path class="st3" d="M-192.8,182.2l-7,18.4h-3.6l-3.4-8.9c-1.2,3.1-2.3,6-3.4,8.9h-3.7l-7-18.4h5.7l3.2,10.1l3.2-10.1h4.1
			l3.2,10.2l3.2-10.2H-192.8z"/>
		<path class="st3" d="M-164.5,182.2l-7,18.4h-3.6l-3.4-8.9c-1.2,3.1-2.3,6-3.4,8.9h-3.7l-7-18.4h5.7l3.2,10.1l3.2-10.1h4.1
			l3.2,10.2l3.2-10.2H-164.5z"/>
		<path class="st3" d="M-136.1,182.2l-7,18.4h-3.6l-3.4-8.9c-1.2,3.1-2.3,6-3.4,8.9h-3.7l-7-18.4h5.7l3.2,10.1l3.2-10.1h4.1
			l3.2,10.2l3.2-10.2H-136.1z"/>
	</g>
</g>
<g id="Layer_3">
	<polygon id="XMLID_1328_" class="st3" points="-109.2,367.9 -90.5,369.5 -89.4,378.4 -84.6,378.6 -86.3,365.1 -114.6,362.3 
		-113.5,377.3 -108.4,377.5 	"/>
	<polygon id="XMLID_1327_" class="st3" points="-84.6,380.6 -89.4,380.5 -88.2,389.9 -107.7,390.3 -108.4,380 -113.5,379.9 
		-112.4,395.6 -82.9,394.7 	"/>
	<g>
		<path class="st4" d="M183,413h-52c-2.2,0-4-1.8-4-4v-63.7h60V409C187,411.2,185.2,413,183,413z"/>
		<path class="st4" d="M187,359.8h17.5c2.2,0,4,1.5,4,3.3v6.8c0,10.5-7,20.2-18.2,25.2l-3.3,1.5"/>
	</g>
	<polygon id="XMLID_6_" class="st3" points="148,370 165,371.5 166,379.5 170.4,379.7 168.8,367.5 143.1,365 144.1,378.5 
		148.7,378.7 	"/>
	<polygon id="XMLID_5_" class="st3" points="170.4,381.5 166,381.4 167,389.9 149.4,390.3 148.7,381 144.1,380.9 145.1,395.1 
		171.9,394.4 	"/>
	<path class="st4" d="M142.5,295.5c0,0,15.2,9.2,6.7,22.7s-1,19.7-1,19.7"/>
	<path class="st4" d="M160.1,295.5c0,0,15.2,9.2,6.7,22.7s-1,19.7-1,19.7"/>
	<g>
		<path class="st2" d="M-113.1,369.3h-16.5v41.6c0,0.9,0.7,1.7,1.7,1.7h57.3c0.9,0,1.7-0.7,1.7-1.7v-67.4h-60.6v20.3h16.5V369.3z"/>
		<path class="st2" d="M-47,359.3h-16.5v33.5c11.2-5.1,18.2-14.8,18.2-25.2v-7.5C-45.3,359.9-45.9,359.3-47,359.3z"/>
		<path class="st3" d="M-47,353.8h-16.5v-15.9h-71.6v25.8h5.5v-20.3H-69v67.4c0,0.9-0.7,1.7-1.7,1.7H-128c-0.9,0-1.7-0.7-1.7-1.7
			v-41.6h-5.5v41.6c0,4,3.2,7.2,7.2,7.2h57.3c4,0,7.2-3.2,7.2-7.2v-12l2-0.9c13.4-6,21.7-17.6,21.7-30.3v-7.5
			C-39.8,356.7-43,353.8-47,353.8z M-45.3,367.7c0,10.4-7,20-18.2,25.2v-33.5H-47c1,0,1.7,0.6,1.7,0.9V367.7z"/>
		<path class="st3" d="M-110.8,334.5l3.5-4.2h-6.5C-112.6,333-111,334.4-110.8,334.5z"/>
		<path class="st3" d="M-91.3,334.5l3.5-4.2h-6.5C-93.1,333-91.5,334.4-91.3,334.5z"/>
		<path class="st2" d="M-116.8,288.1l2.9-4.7c0.3,0.2,7.5,4.6,10.4,12h13.4c-2.6-4.5-7.1-7.3-7.1-7.3l2.9-4.7
			c0.3,0.2,7.5,4.6,10.4,12h32.2V154.2c0-0.9-0.7-1.7-1.7-1.7h-251.3c-0.9,0-1.7,0.7-1.7,1.7v141.3h196.9
			C-112.2,290.9-116.7,288.1-116.8,288.1z"/>
		<path class="st3" d="M-113.9,283.4l-2.9,4.7c0.1,0,4.5,2.8,7.1,7.3h6.1C-106.5,288-113.6,283.6-113.9,283.4z"/>
		<path class="st3" d="M-94.4,283.4l-2.9,4.7c0.1,0,4.5,2.8,7.1,7.3h6.1C-87,288-94.1,283.6-94.4,283.4z"/>
		<rect x="-207.3" y="330.3" class="st2" width="55.8" height="33.4"/>
		<path class="st2" d="M-110.3,309.3c1.8-2.8,2.6-5.6,2.4-8.3h-198.6v22.2c0,0.9,0.7,1.7,1.7,1.7h92h66.9h30.8
			C-115.4,320.9-114.3,315.7-110.3,309.3z"/>
		<path class="st2" d="M-90.8,309.3c1.8-2.8,2.6-5.6,2.4-8.3h-14c0.2,3.8-0.9,7.5-3.2,11.3c-3.5,5.5-4.2,9.7-4,12.6h13.9
			C-95.9,320.9-94.8,315.7-90.8,309.3z"/>
		<path class="st2" d="M-86.1,312.2c-3.5,5.5-4.2,9.7-4,12.6h36.5c0.9,0,1.7-0.7,1.7-1.7v-22.2h-31
			C-82.7,304.7-83.8,308.5-86.1,312.2z"/>
		<path class="st3" d="M-105.6,312.2c2.3-3.7,3.4-7.5,3.2-11.3h-5.5c0.2,2.7-0.6,5.5-2.4,8.3c-4.1,6.4-5.1,11.6-4.9,15.5h5.6
			C-109.9,321.9-109.1,317.8-105.6,312.2z"/>
		<path class="st3" d="M-90.8,309.3c-4.1,6.4-5.1,11.6-4.9,15.5h5.6c-0.3-2.9,0.5-7.1,4-12.6c2.3-3.7,3.4-7.5,3.2-11.3h-5.5
			C-88.2,303.7-89,306.5-90.8,309.3z"/>
		<path class="st3" d="M-146,363.7v-33.4h32.1c-0.7-1.5-1.2-3.3-1.3-5.5H-146h-66.9h-92c-0.9,0-1.7-0.7-1.7-1.7v-22.2h198.6
			c0-0.6-0.1-1.2-0.3-1.8c-0.3-1.3-0.8-2.6-1.5-3.7h-196.9V154.2c0-0.9,0.7-1.7,1.7-1.7h251.3c0.9,0,1.7,0.7,1.7,1.7v141.3h-32.2
			c0.3,0.8,0.6,1.5,0.8,2.4c0.2,1,0.4,2.1,0.4,3.1h31v22.2c0,0.9-0.7,1.7-1.7,1.7h-36.5c0.3,3.6,2.2,5.4,2.3,5.5l0,0h34.2
			c4,0,7.2-3.2,7.2-7.2v-169c0-4-3.2-7.2-7.2-7.2h-251.3c-4,0-7.2,3.2-7.2,7.2v169c0,4,3.2,7.2,7.2,7.2h92v33.4h-32.9v5.5h32.9h66.9
			h10.8v-5.5H-146z M-151.5,363.7h-55.8v-33.4h55.8V363.7z"/>
		<path class="st3" d="M-88.7,299.1c-0.3-1.3-0.8-2.6-1.5-3.7h-13.4c0.3,0.8,0.6,1.5,0.8,2.4c0.2,1,0.4,2.1,0.4,3.1h14
			C-88.4,300.3-88.5,299.7-88.7,299.1z"/>
		<path class="st3" d="M-109.6,324.8c0.3,3.6,2.2,5.4,2.3,5.5l0,0h13c-0.7-1.5-1.2-3.3-1.3-5.5H-109.6z"/>
		<rect x="-135.1" y="363.7" class="st3" width="5.5" height="5.5"/>
		<path class="st3" d="M-102.8,297.8c-0.2-0.8-0.5-1.6-0.8-2.4h-6.1c0.6,1.1,1.2,2.4,1.5,3.7c0.1,0.6,0.2,1.2,0.3,1.8h5.5
			C-102.4,299.9-102.6,298.8-102.8,297.8z"/>
		<path class="st3" d="M-109.6,324.8h-5.6c0.1,2.2,0.7,4.1,1.3,5.5h6.5l0,0C-107.4,330.2-109.3,328.5-109.6,324.8z"/>
		<path class="st3" d="M-90.1,324.8h-5.6c0.1,2.2,0.7,4.1,1.3,5.5h6.5l0,0C-87.9,330.2-89.8,328.5-90.1,324.8z"/>
		<path class="st3" d="M-88.7,299.1c0.1,0.6,0.2,1.2,0.3,1.8h5.5c-0.1-1-0.2-2.1-0.4-3.1c-0.2-0.8-0.5-1.6-0.8-2.4h-6.1
			C-89.5,296.6-89,297.8-88.7,299.1z"/>
	</g>
	<g>
		<polygon class="st2" points="-218.2,224.4 -252.8,239.8 -233.6,259 		"/>
		<path class="st3" d="M-231.8,268.5l24.5-55l-55,24.5l13.3,13.3l-17,17l3.9,3.9l17-17L-231.8,268.5z M-218.2,224.4l-15.4,34.6
			l-19.2-19.2L-218.2,224.4z"/>
	</g>
	<g>
		
			<rect x="-203.3" y="172.2" transform="matrix(0.9821 0.1884 -0.1884 0.9821 31.31 41.0919)" class="st3" width="5.5" height="26.2"/>
	</g>
	<g>
		
			<rect x="-182" y="196.5" transform="matrix(0.2053 0.9787 -0.9787 0.2053 62.6778 341.926)" class="st3" width="5.5" height="26.2"/>
	</g>
	<g>
		<g>
			
				<rect x="-199.6" y="233" transform="matrix(0.7071 0.7071 -0.7071 0.7071 112.063 200.9394)" class="st3" width="26.2" height="5.5"/>
		</g>
		<g>
			
				<rect x="-241.2" y="191.4" transform="matrix(0.7071 0.7071 -0.7071 0.7071 70.4666 218.1692)" class="st3" width="26.2" height="5.5"/>
		</g>
	</g>
	<g>
		<path class="st2" d="M-308.5,407.3c0,0.9,0.7,1.7,1.7,1.7h36.7c0.9,0,1.7-0.7,1.7-1.7v-25.7h-40V407.3z"/>
		<path class="st2" d="M-240.5,407.3c0,0.9,0.7,1.7,1.7,1.7h36.7c0.9,0,1.7-0.7,1.7-1.7v-25.7h-40V407.3z"/>
		<path class="st3" d="M-246,376.1v13.7h-17v-13.7h-51v31.2c0,4,3.2,7.2,7.2,7.2h17l-5.4,5.4l3.9,3.9l9.3-9.3h11.9
			c4,0,7.2-3.2,7.2-7.2v-12.1h17v12.1c0,4,3.2,7.2,7.2,7.2h11.9l9.3,9.3l3.9-3.9l-5.4-5.4h17c4,0,7.2-3.2,7.2-7.2v-31.2H-246z
			 M-268.5,407.3c0,0.9-0.7,1.7-1.7,1.7h-36.7c-0.9,0-1.7-0.7-1.7-1.7v-25.7h40V407.3z M-200.5,407.3c0,0.9-0.7,1.7-1.7,1.7h-36.7
			c-0.9,0-1.7-0.7-1.7-1.7v-25.7h40V407.3z"/>
	</g>
</g>
</svg>
