<?xml version="1.0" encoding="utf-8"?>
<!-- Generator: Adobe Illustrator 19.0.0, SVG Export Plug-In . SVG Version: 6.00 Build 0)  -->
<svg version="1.1" xmlns="http://www.w3.org/2000/svg" xmlns:xlink="http://www.w3.org/1999/xlink" x="0px" y="0px"
	 viewBox="-347 137.5 264.9 286.5" style="enable-background:new -347 137.5 264.9 286.5;" xml:space="preserve">
<style type="text/css">
	.st0{display:none;}
	.st1{display:inline;}
	.st2{fill:none;}
	.st3{fill:#4168B1;}
	.st4{fill:none;stroke:#000000;stroke-width:7;stroke-miterlimit:10;}
	.st5{display:inline;fill:none;stroke:#4168B1;stroke-width:7;stroke-miterlimit:10;}
	.st6{fill:none;stroke:#4168B1;stroke-width:7;stroke-miterlimit:10;}
	.st7{display:inline;fill:#047BC4;}
	.st8{fill:#0590E5;}
	.st9{fill:#047BC4;}
</style>
<g id="Layer_1" class="st0">
	<g id="Layer_1_1_">
		
			<image style="display:inline;overflow:visible;opacity:0.46;enable-background:new    ;" width="300" height="300" id="XMLID_2_" xlink:href="C:\Users\Kelvin Flores\Pictures\camera.jpg"  transform="matrix(1 0 0 1 -1307.3481 187.4078)">
		</image>
	</g>
	<g id="Layer_3">
		
			<image style="display:inline;overflow:visible;enable-background:new    ;" width="225" height="225" id="XMLID_8_" xlink:href="C:\Users\Kelvin Flores\Pictures\camera2.jpg"  transform="matrix(2.1067 0 0 2.1067 -1384.6667 122.7942)">
		</image>
	</g>
	<g id="XMLID_12_" class="st1">
		<path id="XMLID_14_" class="st2" d="M-1254.7,457.9v8h76v-1.5c0-3.6-3-6.5-6.6-6.5H-1254.7z"/>
		<path id="XMLID_96_" class="st2" d="M-1381.7,593.9c0,3.6,3.3,7,6.9,7h189.5c3.6,0,6.6-3.4,6.6-7v-100h-203V593.9L-1381.7,593.9z
			 M-1280,497.2c27.7,0,50.3,22.6,50.3,50.3s-22.6,50.3-50.3,50.3s-50.3-22.6-50.3-50.3C-1330.3,519.7-1307.7,497.2-1280,497.2z"/>
		<path id="XMLID_97_" class="st2" d="M-1268.7,484.9h-22.7c-7.1,0-12.8-5-13.4-12h-76.9v13.8v0.3h203v-0.3v-13.8h-76.5
			C-1255.8,479.9-1261.6,484.9-1268.7,484.9z"/>
		<path id="XMLID_109_" class="st2" d="M-1280,590.7c23.9,0,43.3-19.4,43.3-43.3s-19.4-43.3-43.3-43.3c-23.9,0-43.3,19.4-43.3,43.3
			S-1303.9,590.7-1280,590.7z M-1280,511.6c19.8,0,35.9,16.1,35.9,35.9s-16.1,35.9-35.9,35.9s-35.9-16.1-35.9-35.9
			S-1299.8,511.6-1280,511.6z"/>
		<path id="XMLID_121_" class="st2" d="M-1304.7,457.9h-70.1c-3.6,0-6.9,2.9-6.9,6.5v1.5h77L-1304.7,457.9L-1304.7,457.9z"/>
		<path id="XMLID_124_" class="st2" d="M-1291.3,477.9h22.7c3.2,0,5.8-2,6.4-5c0.1-1,0.6-0.9,0.6-1.3v-5.7v-8v-4
			c0-1.1-0.8-2.1-1.2-3c-1.1-2.1-3.3-3-5.8-3h-22.7c-2.5,0-4.7,0.9-5.8,3c-0.5,0.9-0.6,1.9-0.6,3v4v8v5.7c0,0.4-0.1,0.3,0,1.3
			C-1297.2,475.9-1294.5,477.9-1291.3,477.9z"/>
		<path id="XMLID_129_" class="st2" d="M-1280,576.3c15.9,0,28.9-13,28.9-28.9c0-15.9-13-28.9-28.9-28.9s-28.9,13-28.9,28.9
			C-1308.9,563.3-1295.9,576.3-1280,576.3z"/>
		<path id="XMLID_132_" class="st2" d="M-1170.2,237.9h-93c-3.6,0-6.5,2.9-6.5,6.5v86c0,3.6,2.9,6.5,6.5,6.5h93
			c3.6,0,6.5-2.9,6.5-6.5v-86C-1163.7,240.8-1166.6,237.9-1170.2,237.9z M-1172.7,316.4c0,7.5-6,13.5-13.5,13.5h-61
			c-7.5,0-13.5-6-13.5-13.5v-57c0-7.5,6-13.5,13.5-13.5h61c7.5,0,13.5,6,13.5,13.5V316.4z"/>
		<path id="XMLID_133_" class="st2" d="M-1186.2,252.9h-61c-3.6,0-6.5,2.9-6.5,6.5v57c0,3.6,2.9,6.5,6.5,6.5h61
			c3.6,0,6.5-2.9,6.5-6.5v-57C-1179.7,255.8-1182.6,252.9-1186.2,252.9z"/>
		<path id="XMLID_138_" class="st3" d="M-1280,597.7c27.7,0,50.3-22.6,50.3-50.3c0-27.7-22.6-50.3-50.3-50.3s-50.3,22.6-50.3,50.3
			C-1330.3,575.2-1307.7,597.7-1280,597.7z M-1280,504.2c23.9,0,43.3,19.4,43.3,43.3s-19.4,43.3-43.3,43.3
			c-23.9,0-43.3-19.4-43.3-43.3S-1303.9,504.2-1280,504.2z"/>
		<path id="XMLID_141_" class="st3" d="M-1280,583.3c19.8,0,35.9-16.1,35.9-35.9c0-19.8-16.1-35.9-35.9-35.9s-35.9,16.1-35.9,35.9
			C-1315.9,567.2-1299.8,583.3-1280,583.3z M-1280,518.6c15.9,0,28.9,13,28.9,28.9s-13,28.9-28.9,28.9s-28.9-13-28.9-28.9
			S-1295.9,518.6-1280,518.6z"/>
		<g id="XMLID_279_">
			<path id="XMLID_280_" class="st2" d="M-1265.4,477.1c1.8-0.9,3.1-2.5,3.5-4.4c0.1-1,0.2-0.8,0.2-1.2c0,0.4-0.5,0.3-0.6,1.3
				C-1262.6,474.8-1263.8,476.3-1265.4,477.1z"/>
			<path id="XMLID_281_" class="st2" d="M-1267.6,477.8c-0.3,0-0.7,0.1-1,0.1C-1268.3,477.9-1267.9,477.9-1267.6,477.8z"/>
			<path id="XMLID_282_" class="st2" d="M-1265.4,477.1c-0.3,0.1-0.6,0.3-0.9,0.4C-1266,477.4-1265.7,477.3-1265.4,477.1z"/>
			<path id="XMLID_283_" class="st2" d="M-1266.6,477.6c-0.3,0.1-0.5,0.1-0.8,0.2C-1267.1,477.7-1266.8,477.7-1266.6,477.6z"/>
			<path id="XMLID_284_" class="st2" d="M-1268.7,484.9h-22.7c-7.1,0-12.8-5-13.4-12h-76.9v13.8v0.3h203v-0.3v-13.8h-76.5
				C-1255.8,479.9-1261.6,484.9-1268.7,484.9z"/>
			<path id="XMLID_285_" class="st2" d="M-1381.7,593.9c0,3.6,3.3,7,6.9,7h189.5c3.6,0,6.6-3.4,6.6-7v-100h-203V593.9L-1381.7,593.9
				z"/>
			<path id="XMLID_286_" class="st2" d="M-1304.7,457.9h-70.1c-3.6,0-6.9,2.9-6.9,6.5v1.5h77L-1304.7,457.9L-1304.7,457.9z"/>
			<path id="XMLID_287_" class="st2" d="M-1291.3,477.9h22.7c0.4,0,0.7,0,1-0.1c0.1,0,0.2,0,0.2,0c0.3,0,0.5-0.1,0.8-0.2
				c0.1,0,0.2-0.1,0.3-0.1c0.3-0.1,0.6-0.2,0.9-0.4l0,0c1.6-0.8,2.8-2.3,3.1-4.2c0.1-1,0.6-0.9,0.6-1.3v-5.7v-8v-4
				c0-1.1-0.8-2.1-1.2-3c-1.1-2.1-3.3-3-5.8-3h-22.7c-2.5,0-4.7,0.9-5.8,3c-0.5,0.9-0.6,1.9-0.6,3v4v8v5.7c0,0.4-0.1,0.3,0,1.3
				C-1297.2,475.9-1294.5,477.9-1291.3,477.9z"/>
			<path id="XMLID_290_" class="st2" d="M-1195.2,421.9c3.6,0,6.5-2.9,6.5-6.5v-63c0-3.6-2.9-6.5-6.5-6.5h-43
				c-3.6,0-6.5,2.9-6.5,6.5v63c0,3.6,2.9,6.5,6.5,6.5H-1195.2z"/>
			<path id="XMLID_292_" class="st2" d="M-1254.7,457.9v8h76v-1.5c0-3.6-3-6.5-6.6-6.5H-1254.7z"/>
			<path id="XMLID_293_" class="st2" d="M-1170.2,237.9h-93c-3.6,0-6.5,2.9-6.5,6.5v86c0,3.6,2.9,6.5,6.5,6.5h93
				c3.6,0,6.5-2.9,6.5-6.5v-86C-1163.7,240.8-1166.6,237.9-1170.2,237.9z"/>
			<path id="XMLID_294_" class="st2" d="M-1248.7,435.2v15.7h63.4h0.6v-15.7c0-3.6-2.9-6.3-6.5-6.3h-3.8h-43.4h-3.8
				C-1245.8,428.9-1248.7,431.7-1248.7,435.2z"/>
			<path id="XMLID_303_" class="st3" d="M-1170.4,230.9h-92.6c-7.4,0-13.7,6.1-13.7,13.5v86.3c0,7.4,6.2,13.1,13.7,13.1h13.5
				c0,0,0.7-0.2,0.1,0.6c-1.5,2.2-2.2,4.5-2.2,7.4v63.3c0,3.1,1,6.1,2.7,8.3c-3.9,2.4-6.7,6.7-6.7,11.7V450c-2-5.5-6.9-9.1-13-9.1
				h-22.7c-6.4,0-11.8,4-13.2,10h-70.3c-7.4,0-13.9,6.1-13.9,13.5v1.5v28v100c0,7.4,6.5,14,13.9,14h189.5c7.4,0,13.6-6.6,13.6-14
				v-100v-28v-1.5c0-4.6-2-8.8-6-11.2v-18c0-4.9-2.9-9.3-6.8-11.7c1.8-2.3,2.8-5.2,2.8-8.3v-63.3c0-2.8-0.8-5.2-2.3-7.4
				c-0.4-0.6,0.1-0.6,0.1-0.6h13.5c7.4,0,13.7-5.7,13.7-13.1v-86.3C-1156.7,237-1163,230.9-1170.4,230.9z M-1297.7,471.6v-5.7v-8v-4
				c0-1.1,0.1-2.1,0.6-3c1.1-2.1,3.3-3,5.8-3h22.7c2.5,0,4.7,0.9,5.8,3c0.5,0.9,1.2,1.9,1.2,3v4v8v5.7c0,0.4-0.2,0.2-0.2,1.2
				c-0.4,1.9-1.7,3.5-3.5,4.4l0,0c-0.3,0.1-0.6,0.3-0.9,0.4c-0.1,0-0.2,0.1-0.3,0.1c-0.3,0.1-0.5,0.1-0.8,0.2c-0.1,0-0.2,0-0.2,0
				c-0.3,0.1-0.7,0.1-1,0.1h-22.7c-3.2,0-5.8-2-6.4-5C-1297.8,471.9-1297.7,472-1297.7,471.6z M-1381.7,464.4c0-3.6,3.3-6.5,6.9-6.5
				h70.1v8h-77V464.4z M-1178.7,593.9c0,3.6-3,7-6.6,7h-189.5c-3.6,0-6.9-3.4-6.9-7v-100h203L-1178.7,593.9L-1178.7,593.9z
				 M-1178.7,486.7v0.3h-203v-0.3v-13.8h76.9c0.6,7,6.4,12,13.4,12h22.7c7.1,0,12.8-5,13.4-12h76.5L-1178.7,486.7L-1178.7,486.7z
				 M-1178.7,464.4v1.5h-76v-8h69.4C-1181.6,457.9-1178.7,460.8-1178.7,464.4z M-1242.3,428.9h3.8h43.4h3.8c3.6,0,6.5,2.7,6.5,6.3
				v15.7h-0.6h-63.4v-15.7C-1248.7,431.7-1245.8,428.9-1242.3,428.9z M-1244.7,415.4v-63c0-3.6,2.9-6.5,6.5-6.5h43
				c3.6,0,6.5,2.9,6.5,6.5v63c0,3.6-2.9,6.5-6.5,6.5h-43C-1241.8,421.9-1244.7,419-1244.7,415.4z M-1163.7,330.4
				c0,3.6-2.9,6.5-6.5,6.5h-93c-3.6,0-6.5-2.9-6.5-6.5v-86c0-3.6,2.9-6.5,6.5-6.5h93c3.6,0,6.5,2.9,6.5,6.5V330.4z"/>
			<path id="XMLID_370_" d="M-1265.4,477.1L-1265.4,477.1L-1265.4,477.1z"/>
			<path id="XMLID_371_" d="M-1266.3,477.5c-0.1,0-0.2,0.1-0.3,0.1C-1266.5,477.6-1266.4,477.5-1266.3,477.5z"/>
			<path id="XMLID_372_" d="M-1267.4,477.8c-0.1,0-0.2,0-0.2,0C-1267.5,477.8-1267.4,477.8-1267.4,477.8z"/>
		</g>
		<path id="XMLID_155_" class="st3" d="M-1186.2,245.9h-61c-7.5,0-13.5,6-13.5,13.5v57c0,7.5,6,13.5,13.5,13.5h61
			c7.5,0,13.5-6,13.5-13.5v-57C-1172.7,251.9-1178.7,245.9-1186.2,245.9z M-1179.7,316.4c0,3.6-2.9,6.5-6.5,6.5h-61
			c-3.6,0-6.5-2.9-6.5-6.5v-57c0-3.6,2.9-6.5,6.5-6.5h61c3.6,0,6.5,2.9,6.5,6.5V316.4z"/>
	</g>
	<g id="XMLID_144_" class="st1">
		<path id="XMLID_92_" class="st2" d="M-1608.7,451.9h-70.1c-3.6,0-6.9,2.9-6.9,6.5v1.5h77V451.9z"/>
		<path id="XMLID_40_" d="M-1482.7,587.9c0,3.6-3,7-6.6,7h-189.5c-3.6,0-6.9-3.4-6.9-7v-100h-7v100c0,7.4,6.5,14,13.9,14h189.5
			c7.4,0,13.6-6.6,13.6-14v-100h-7V587.9z"/>
		<path id="XMLID_38_" d="M-1685.7,458.4c0-3.6,3.3-6.5,6.9-6.5h70.1v-4c0-1,0-2,0.2-3h-70.3c-7.4,0-13.9,6.1-13.9,13.5v1.5h7
			L-1685.7,458.4L-1685.7,458.4z"/>
		<rect id="XMLID_34_" x="-1608.7" y="451.9" width="7" height="8"/>
		<path id="XMLID_32_" d="M-1608.7,451.9h7v-4c0-1.1,0.1-2.1,0.6-3h-7.4c-0.2,1-0.2,2-0.2,3V451.9L-1608.7,451.9z"/>
		<path id="XMLID_29_" d="M-1608.7,465.6v-5.7h-77v7h76.9C-1608.8,465.9-1608.7,466-1608.7,465.6z"/>
		<polygon id="XMLID_28_" points="-1482.7,466.7 -1482.7,480.7 -1482.7,487.9 -1475.7,487.9 -1475.7,459.9 -1482.7,459.9 		"/>
		<path id="XMLID_16_" d="M-1601.7,465.6v-5.7h-7v5.7c0,0.4-0.1,0.3-0.1,1.3h7.1C-1601.8,465.9-1601.7,466-1601.7,465.6z"/>
		<g id="XMLID_143_">
			<path id="XMLID_91_" class="st2" d="M-1572.7,478.9h-22.7c-7.1,0-12.8-5-13.4-12h-76.9v14h203v-14h-76.5
				C-1559.8,473.9-1565.6,478.9-1572.7,478.9z"/>
			<path id="XMLID_90_" class="st2" d="M-1595.3,471.9h22.7c3.2,0,5.8-2,6.4-5h-35.4C-1601.2,469.9-1598.5,471.9-1595.3,471.9z"/>
			<path id="XMLID_87_" class="st2" d="M-1584,584.7c23.9,0,43.3-19.4,43.3-43.3s-19.4-43.3-43.3-43.3s-43.3,19.4-43.3,43.3
				S-1607.9,584.7-1584,584.7z M-1584,505.6c19.8,0,35.9,16.1,35.9,35.9s-16.1,35.9-35.9,35.9s-35.9-16.1-35.9-35.9
				S-1603.8,505.6-1584,505.6z"/>
			<path id="XMLID_86_" class="st2" d="M-1482.7,459.9v-1.5c0-3.6-3-6.5-6.6-6.5h-69.4v8H-1482.7z"/>
			<path id="XMLID_85_" class="st2" d="M-1572.7,441.9h-22.7c-2.5,0-4.7,0.9-5.8,3h34.2C-1568,442.8-1570.1,441.9-1572.7,441.9z"/>
			<path id="XMLID_82_" class="st2" d="M-1685.7,587.9c0,3.6,3.3,7,6.9,7h189.5c3.6,0,6.6-3.4,6.6-7v-100h-203V587.9z M-1584,491.2
				c27.7,0,50.3,22.6,50.3,50.3s-22.6,50.3-50.3,50.3s-50.3-22.6-50.3-50.3C-1634.3,513.7-1611.7,491.2-1584,491.2z"/>
			<path id="XMLID_81_" class="st2" d="M-1584,570.3c15.9,0,28.9-13,28.9-28.9c0-15.9-13-28.9-28.9-28.9s-28.9,13-28.9,28.9
				C-1612.9,557.3-1599.9,570.3-1584,570.3z"/>
			<path id="XMLID_74_" d="M-1584,591.7c27.7,0,50.3-22.6,50.3-50.3c0-27.7-22.6-50.3-50.3-50.3s-50.3,22.6-50.3,50.3
				C-1634.3,569.2-1611.7,591.7-1584,591.7z M-1584,498.2c23.9,0,43.3,19.4,43.3,43.3s-19.4,43.3-43.3,43.3s-43.3-19.4-43.3-43.3
				S-1607.9,498.2-1584,498.2z"/>
			<path id="XMLID_41_" d="M-1584,577.3c19.8,0,35.9-16.1,35.9-35.9c0-19.8-16.1-35.9-35.9-35.9s-35.9,16.1-35.9,35.9
				C-1619.9,561.2-1603.8,577.3-1584,577.3z M-1584,512.6c15.9,0,28.9,13,28.9,28.9s-13,28.9-28.9,28.9s-28.9-13-28.9-28.9
				S-1599.9,512.6-1584,512.6z"/>
			<path id="XMLID_39_" d="M-1489.2,444.9h-70.3c0.2,1,0.8,2,0.8,3v4h69.4c3.6,0,6.6,2.9,6.6,6.5v1.5h7v-1.5
				C-1475.7,451-1481.8,444.9-1489.2,444.9z"/>
			<path id="XMLID_37_" d="M-1572.7,471.9h-22.7c-3.2,0-5.8-2-6.4-5h-7.1c0.6,7,6.4,12,13.4,12h22.7c7.1,0,12.8-5,13.4-12h-7.1
				C-1566.8,469.9-1569.5,471.9-1572.7,471.9z"/>
			<rect id="XMLID_36_" x="-1565.7" y="451.9" width="7" height="8"/>
			<path id="XMLID_35_" d="M-1595.3,441.9h22.7c2.5,0,4.7,0.9,5.8,3h7.4c-1.4-6-6.7-10-13.2-10h-22.7c-6.4,0-11.8,4-13.2,10h7.4
				C-1600,442.8-1597.8,441.9-1595.3,441.9z"/>
			<path id="XMLID_33_" d="M-1565.7,447.9v4h7v-4c0-1-0.6-2-0.8-3h-7.4C-1566.4,445.8-1565.7,446.8-1565.7,447.9z"/>
			<rect id="XMLID_31_" x="-1685.7" y="480.9" width="203" height="7"/>
			<path id="XMLID_30_" d="M-1558.7,465.6c0,0.4-0.5,0.3-0.5,1.3h76.5v-7h-76V465.6z"/>
			<path id="XMLID_27_" d="M-1566.3,466.9h7.1c0-1,0.5-0.9,0.5-1.3v-5.7h-7v5.7C-1565.7,466-1566.2,465.9-1566.3,466.9z"/>
			<path id="XMLID_13_" class="st4" d="M-1485.2,448.4h-71.1v-19.2c0-5.5,4.5-10,10-10h51.1c5.5,0,10,4.5,10,10V448.4z"/>
			<path id="XMLID_11_" class="st4" d="M-1474.4,334.8h-92.6c-5.5,0-10-4.5-10-10v-86.3c0-5.5,4.5-10,10-10h92.6c5.5,0,10,4.5,10,10
				v86.3C-1464.4,330.3-1468.9,334.8-1474.4,334.8z"/>
			<path id="XMLID_10_" class="st4" d="M-1490.2,319.9h-61c-5.5,0-10-4.5-10-10v-56.5c0-5.5,4.5-10,10-10h61c5.5,0,10,4.5,10,10
				v56.5C-1480.2,315.4-1484.7,319.9-1490.2,319.9z"/>
			<path id="XMLID_9_" class="st4" d="M-1499,419.2h-43.4c-5.5,0-10-4.5-10-10v-63.3c0-5.5,4.5-10,10-10h43.4c5.5,0,10,4.5,10,10
				v63.3C-1489,414.8-1493.5,419.2-1499,419.2z"/>
			<circle id="XMLID_26_" class="st4" cx="-1584" cy="541.4" r="46.8"/>
			<circle id="XMLID_25_" class="st4" cx="-1584" cy="541.4" r="32.4"/>
			<path id="XMLID_24_" class="st4" d="M-1489.2,597.9h-189.5c-5.5,0-10-4.5-10-10V458.4c0-5.5,4.5-10,10-10h189.5
				c5.5,0,10,4.5,10,10v129.5C-1479.2,593.4-1483.7,597.9-1489.2,597.9z"/>
			<path id="XMLID_23_" class="st4" d="M-1572.7,475.6h-22.7c-5.5,0-10-4.5-10-10v-17.7c0-5.5,4.5-10,10-10h22.7c5.5,0,10,4.5,10,10
				v17.7C-1562.7,471.1-1567.2,475.6-1572.7,475.6z"/>
			<rect id="XMLID_22_" x="-1688.7" y="463.2" class="st4" width="209.5" height="20.9"/>
			<path id="XMLID_21_" class="st4" d="M-1485.2,448.4h-71.1v-19.2c0-5.5,4.5-10,10-10h51.1c5.5,0,10,4.5,10,10V448.4z"/>
			<path id="XMLID_20_" class="st4" d="M-1474.4,334.8h-92.6c-5.5,0-10-4.5-10-10v-86.3c0-5.5,4.5-10,10-10h92.6c5.5,0,10,4.5,10,10
				v86.3C-1464.4,330.3-1468.9,334.8-1474.4,334.8z"/>
			<path id="XMLID_19_" class="st4" d="M-1490.2,319.9h-61c-5.5,0-10-4.5-10-10v-56.5c0-5.5,4.5-10,10-10h61c5.5,0,10,4.5,10,10
				v56.5C-1480.2,315.4-1484.7,319.9-1490.2,319.9z"/>
			<path id="XMLID_18_" class="st4" d="M-1499,419.2h-43.4c-5.5,0-10-4.5-10-10v-63.3c0-5.5,4.5-10,10-10h43.4c5.5,0,10,4.5,10,10
				v63.3C-1489,414.8-1493.5,419.2-1499,419.2z"/>
		</g>
	</g>
	<g id="XMLID_172_" class="st1">
		<path id="XMLID_234_" class="st2" d="M-1048.7,352.9v176.9c0,3.2,1.8,6.1,5,6.1h285.4c3.2,0,5.6-3,5.6-6.1V352.9h0.2H-1048.7z
			 M-924.1,485.6c1,1.4,0.8,3.3-0.6,4.4c-0.6,0.4-1.2,0.6-1.9,0.6c-0.9,0-1.9-0.4-2.5-1.2l-31.7-42.3c-0.4-0.6-0.6-1.3-0.6-1.9
			c0-0.7,0.2-1.4,0.6-1.9l31.7-42.3c1-1.4,3-1.7,4.4-0.6c1.4,1,1.7,3,0.6,4.4l-30.3,40.5L-924.1,485.6z M-885.7,403.7l-25.4,84.7
			c-0.4,1.3-1.6,2.2-3,2.2c-0.3,0-0.6,0-0.9-0.1c-1.6-0.5-2.6-2.2-2.1-3.9l25.4-84.7c0.5-1.6,2.2-2.6,3.9-2.1
			S-885.2,402.1-885.7,403.7z M-841.2,447.1l-31.7,42.3c-0.6,0.8-1.5,1.2-2.5,1.2c-0.6,0-1.3-0.2-1.9-0.6c-1.4-1-1.7-3-0.6-4.4
			l30.3-40.5l-30.3-40.5c-1-1.4-0.8-3.3,0.6-4.4c1.4-1,3.3-0.7,4.4,0.6l31.7,42.3c0.4,0.6,0.6,1.3,0.6,1.9
			C-840.5,445.8-840.7,446.5-841.2,447.1z"/>
		<path id="XMLID_406_" class="st2" d="M-758.2,325.9h-285.4c-3.2,0-5,2.8-5,6v15h296.2h-0.2v-15
			C-752.7,328.7-755.1,325.9-758.2,325.9z M-1033.8,342.3c-3.1,0-5.7-2.5-5.7-5.7s2.5-5.7,5.7-5.7c3.1,0,5.7,2.5,5.7,5.7
			S-1030.7,342.3-1033.8,342.3z M-1017.8,342.3c-3.1,0-5.7-2.5-5.7-5.7s2.5-5.7,5.7-5.7c3.1,0,5.7,2.5,5.7,5.7
			S-1014.7,342.3-1017.8,342.3z M-1001.8,342.3c-3.1,0-5.7-2.5-5.7-5.7s2.5-5.7,5.7-5.7c3.1,0,5.7,2.5,5.7,5.7
			S-998.7,342.3-1001.8,342.3z"/>
		<path id="XMLID_411_" class="st3" d="M-758.2,319.9h-285.4c-6.6,0-12,5.4-12,12v16.2c0,0.4-0.2,0.9-0.2,1.4c0,0.1,0.1,0.1,0.1,0.2
			s-0.1,0.1-0.1,0.2c0,0.5,0.3,1,0.3,1.4v178.6c0,6.6,5.4,12.1,12,12.1h285.4c6.6,0,12.6-5.5,12.6-12.1v-198
			C-745.7,325.3-751.6,319.9-758.2,319.9z M-752.7,529.8c0,3.2-2.4,6.1-5.6,6.1h-285.4c-3.2,0-5-3-5-6.1V352.9h296.2h-0.2V529.8z
			 M-752.7,346.9h0.2h-296.2v-15c0-3.2,1.8-6,5-6h285.4c3.2,0,5.6,2.8,5.6,6V346.9L-752.7,346.9z"/>
		<circle id="XMLID_428_" class="st3" cx="-1033.8" cy="336.7" r="5.7"/>
		<circle id="XMLID_429_" class="st3" cx="-1017.8" cy="336.7" r="5.7"/>
		<circle id="XMLID_430_" class="st3" cx="-1001.8" cy="336.7" r="5.7"/>
		<path id="XMLID_431_" class="st3" d="M-924.8,400.3c-1.4-1-3.3-0.7-4.4,0.6l-31.7,42.3c-0.4,0.6-0.6,1.3-0.6,1.9
			c0,0.7,0.2,1.4,0.6,1.9l31.7,42.3c0.6,0.8,1.5,1.2,2.5,1.2c0.6,0,1.3-0.2,1.9-0.6c1.4-1,1.7-3,0.6-4.4l-30.3-40.5l30.3-40.5
			C-923.1,403.3-923.4,401.3-924.8,400.3z"/>
		<path id="XMLID_432_" class="st3" d="M-872.8,400.9c-1-1.4-3-1.7-4.4-0.6c-1.4,1-1.7,3-0.6,4.4l30.3,40.5l-30.3,40.5
			c-1,1.4-0.8,3.3,0.6,4.4c0.6,0.4,1.2,0.6,1.9,0.6c0.9,0,1.9-0.4,2.5-1.2l31.7-42.3c0.4-0.6,0.6-1.3,0.6-1.9c0-0.7-0.2-1.4-0.6-1.9
			L-872.8,400.9z"/>
		<path id="XMLID_433_" class="st3" d="M-887.8,399.8c-1.6-0.5-3.4,0.4-3.9,2.1l-25.4,84.7c-0.5,1.6,0.4,3.4,2.1,3.9
			c0.3,0.1,0.6,0.1,0.9,0.1c1.3,0,2.6-0.9,3-2.2l25.4-84.7C-885.2,402.1-886.1,400.3-887.8,399.8z"/>
	</g>
	<path id="XMLID_469_" class="st5" d="M-162,555.3h-82c-5.5,0-10-4.5-10-10v-82c0-5.5,4.5-10,10-10h82c5.5,0,10,4.5,10,10v82
		C-152,550.8-156.5,555.3-162,555.3z"/>
	<line id="XMLID_468_" class="st5" x1="-263.7" y1="504.4" x2="-141.7" y2="504.4"/>
	<g id="XMLID_465_" class="st1">
		<path id="XMLID_474_" class="st3" d="M-296.4,668.2c-2.5-2.5-2.6-7-0.1-9.5l58-58c2.5-2.5,6.7-2.2,9.2,0.3l22.8,22.8l4.9-4.9
			l-22.8-22.8c-5.3-5.3-13.9-5.6-19.1-0.3l-58,58c-5.3,5.3-5.2,14.1,0.1,19.4l22.8,22.8l4.9-4.9L-296.4,668.2z"/>
		<path id="XMLID_475_" class="st3" d="M-171.3,659c2.5,2.5,2.5,6.3-0.1,8.8l-58,58c-2.5,2.5-6.6,2.9-9.1,0.3l-22.5-22.5l-4.9,4.9
			l22.5,22.5c5.3,5.3,13.7,4.9,19-0.3l58-58c5.3-5.3,5.3-13.5,0.1-18.7l-22.5-22.5l-4.9,4.9L-171.3,659z"/>
	</g>
	<g id="XMLID_321_" class="st1">
		<line id="XMLID_328_" class="st6" x1="116.3" y1="397.9" x2="334.3" y2="397.9"/>
		<path id="XMLID_327_" class="st6" d="M116.1,318.9c0,0,37.9,74.1,109,76.6s109-76.6,109-76.6"/>
		<g id="XMLID_322_">
			<circle id="XMLID_326_" class="st6" cx="112.1" cy="308.1" r="10"/>
			<circle id="XMLID_325_" class="st3" cx="112.1" cy="399.1" r="10"/>
			<circle id="XMLID_324_" class="st3" cx="334.1" cy="399.1" r="10"/>
			<circle id="XMLID_323_" class="st6" cx="334.1" cy="308.1" r="10"/>
		</g>
	</g>
	<g id="XMLID_142_" class="st1">
		<circle id="XMLID_320_" class="st6" cx="224" cy="318.1" r="10"/>
		<path id="XMLID_319_" class="st6" d="M234,367.2h-20c0,0-11.2-40-25.3-43.1c-12-2.7,8-82,8-82h54.4c0,0,20.4,82,8,82
			S234,367.2,234,367.2z"/>
		<line id="XMLID_145_" class="st6" x1="224.1" y1="325.4" x2="223.8" y2="367.2"/>
	</g>
	<path id="XMLID_135_" class="st5" d="M250.1,252.4h-52.2c-6.2,0-11.3-5.1-11.3-11.3l0,0c0-6.2,5.1-11.3,11.3-11.3h52.2
		c6.2,0,11.3,5.1,11.3,11.3l0,0C261.4,247.3,256.3,252.4,250.1,252.4z"/>
	<line id="XMLID_95_" class="st5" x1="200.8" y1="152.4" x2="200.8" y2="229.4"/>
	<line id="XMLID_66_" class="st5" x1="246.8" y1="152.4" x2="246.8" y2="229.4"/>
	<g id="Layer_2">
		<path id="XMLID_99_" class="st7" d="M-1018.7,546.9L-1018.7,546.9L-1018.7,546.9L-1018.7,546.9z"/>
		<path id="XMLID_100_" class="st7" d="M-1012.7,545.3L-1012.7,545.3C-1012.6,545.3-1012.6,545.3-1012.7,545.3
			C-1012.7,545.3-1012.7,545.3-1012.7,545.3z"/>
		<path id="XMLID_101_" class="st7" d="M-1015.7,546.2L-1015.7,546.2C-1015.6,546.2-1015.6,546.2-1015.7,546.2
			C-1015.6,546.2-1015.7,546.2-1015.7,546.2z"/>
		<path id="XMLID_102_" class="st7" d="M-1009.8,544.3L-1009.8,544.3L-1009.8,544.3z"/>
		<path id="XMLID_104_" class="st7" d="M-1007.4,543.3c0.1-0.1,0.3-0.1,0.4-0.2h0.1C-1007.1,543.2-1007.3,543.2-1007.4,543.3z"/>
		<path id="XMLID_181_" class="st7" d="M-1018.7,546.9C-1018.6,546.9-1018.6,546.9-1018.7,546.9c0.4-0.1,0.7-0.2,1-0.2
			C-1018,546.8-1018.3,546.8-1018.7,546.9z"/>
		<path id="XMLID_182_" class="st7" d="M-1014.5,545.9c-0.4,0.1-0.8,0.2-1.2,0.3c0.1,0,0.1,0,0.2-0.1
			C-1015.1,546.1-1014.8,546-1014.5,545.9z"/>
		<path id="XMLID_183_" class="st7" d="M-1012.6,545.3c0.1,0,0.2-0.1,0.3-0.1c0.3-0.1,0.6-0.2,0.9-0.3
			C-1011.8,545-1012.2,545.2-1012.6,545.3z"/>
		<path id="XMLID_184_" class="st7" d="M-1001.5,540.2c0.3-0.2,0.6-0.4,0.9-0.6c0.1,0,0.1-0.1,0.2-0.1
			C-1000.8,539.8-1001.2,540-1001.5,540.2L-1001.5,540.2z"/>
		<path id="XMLID_185_" class="st7" d="M-1004.3,541.8c0.1,0,0.1-0.1,0.2-0.1c0.2-0.1,0.3-0.2,0.5-0.3c0.2-0.1,0.3-0.2,0.5-0.3
			C-1003.4,541.3-1003.9,541.6-1004.3,541.8z"/>
		<path id="XMLID_186_" class="st7" d="M-1006.9,543.1c0.1,0,0.2-0.1,0.2-0.1c0.3-0.1,0.6-0.3,0.9-0.5
			C-1006.1,542.7-1006.5,542.9-1006.9,543.1z"/>
		<path id="XMLID_187_" class="st7" d="M-1008.6,543.8c-0.4,0.2-0.8,0.4-1.2,0.5c0.1,0,0.2-0.1,0.3-0.1
			C-1009.2,544.1-1008.9,543.9-1008.6,543.8z"/>
		<path id="XMLID_188_" class="st7" d="M-997.2,539.8c0.5-0.3,0.9-0.6,1.4-1c-0.2,0.2-0.4,0.3-0.7,0.5
			C-996.8,539.4-997,539.6-997.2,539.8z"/>
		<path id="XMLID_189_" class="st7" d="M-994.8,538c0.1-0.1,0.2-0.2,0.3-0.2c0.4-0.3,0.8-0.7,1.2-1c-0.2,0.2-0.4,0.3-0.6,0.5
			C-994.2,537.5-994.5,537.8-994.8,538z"/>
		<path id="XMLID_190_" class="st7" d="M-989.9,533.6c0.5-0.5,0.9-0.9,1.4-1.4c-0.2,0.2-0.4,0.4-0.6,0.6
			C-989.4,533.1-989.6,533.4-989.9,533.6z"/>
		<path id="XMLID_191_" class="st7" d="M-992.9,536.4c0.1-0.1,0.2-0.2,0.3-0.2l-0.1,0.1C-992.8,536.4-992.9,536.4-992.9,536.4z"/>
		<path id="XMLID_192_" class="st7" d="M-992.3,535.9c0.4-0.4,0.8-0.7,1.2-1.1c0.1-0.1,0.2-0.2,0.3-0.3c-0.2,0.2-0.5,0.4-0.7,0.7
			C-991.7,535.4-992,535.6-992.3,535.9z"/>
		<path id="XMLID_193_" class="st7" d="M-997.9,540.3c-0.1,0.1-0.2,0.1-0.3,0.2C-998.1,540.4-998,540.3-997.9,540.3L-997.9,540.3z"
			/>
		<path id="XMLID_194_" class="st7" d="M-776.3,477.3c-0.1,0.1-0.2,0.3-0.3,0.4C-776.5,477.6-776.4,477.5-776.3,477.3z"/>
		<path id="XMLID_195_" class="st7" d="M-778.7,480.2c0.1-0.1,0.1-0.1,0.2-0.2c-0.2,0.2-0.3,0.3-0.5,0.5
			C-778.9,480.4-778.8,480.3-778.7,480.2z"/>
		<path id="XMLID_196_" class="st7" d="M-774.5,475C-774.5,475-774.4,475-774.5,475l-0.1,0.1C-774.6,475.1-774.5,475.1-774.5,475z"
			/>
		<path id="XMLID_197_" class="st7" d="M-769.1,466.3C-769.1,466.3-769.2,466.4-769.1,466.3C-769.2,466.4-769.1,466.3-769.1,466.3z"
			/>
		<path id="XMLID_198_" class="st7" d="M-772.5,472.2c-0.1,0.1-0.1,0.2-0.2,0.2C-772.6,472.3-772.6,472.2-772.5,472.2z"/>
		<path id="XMLID_199_" class="st7" d="M-780.7,482.2c-0.2,0.2-0.3,0.3-0.5,0.5C-781,482.5-780.8,482.4-780.7,482.2z"/>
		<path id="XMLID_200_" class="st7" d="M-763.1,418.7L-763.1,418.7L-763.1,418.7z"/>
		<path id="XMLID_201_" class="st7" d="M-762.5,422.4c0-0.1,0-0.1,0-0.2C-762.5,422.3-762.5,422.3-762.5,422.4z"/>
		<path id="XMLID_202_" class="st7" d="M-783.4,484.7C-783.4,484.7-783.3,484.7-783.4,484.7c0,0-0.2,0.1-0.3,0.2
			C-783.6,484.9-783.5,484.8-783.4,484.7z"/>
		<path id="XMLID_203_" class="st7" d="M-767.7,463.3L-767.7,463.3L-767.7,463.3z"/>
		<path id="XMLID_204_" class="st7" d="M-785.6,486.5c-0.2,0.2-0.4,0.3-0.6,0.5C-786,486.8-785.8,486.6-785.6,486.5z"/>
		<path id="XMLID_206_" class="st7" d="M-762,426v-0.1C-762,425.9-762,425.9-762,426z"/>
		<path id="XMLID_207_" class="st7" d="M-762.3,443.6L-762.3,443.6C-762.3,443.6-762.3,443.7-762.3,443.6
			C-762.3,443.7-762.3,443.7-762.3,443.6z"/>
		<path id="XMLID_208_" class="st7" d="M-761.7,436.6c0,0.1,0,0.1,0,0.2C-761.7,436.7-761.7,436.6-761.7,436.6z"/>
		<path id="XMLID_209_" class="st7" d="M-761.9,440.1v0.1V440.1z"/>
		<path id="XMLID_210_" class="st7" d="M-761.7,433.1L-761.7,433.1L-761.7,433.1z"/>
		<path id="XMLID_211_" class="st7" d="M-761.8,429.5L-761.8,429.5L-761.8,429.5L-761.8,429.5z"/>
		<path id="XMLID_212_" class="st7" d="M-764.3,453.7C-764.3,453.8-764.3,453.8-764.3,453.7C-764.3,453.8-764.3,453.8-764.3,453.7z"
			/>
		<path id="XMLID_213_" class="st7" d="M-765.3,457L-765.3,457L-765.3,457C-765.3,457.1-765.3,457-765.3,457z"/>
		<path id="XMLID_214_" class="st7" d="M-766.4,460.2L-766.4,460.2L-766.4,460.2z"/>
		<path id="XMLID_215_" class="st7" d="M-762.8,447v0.1V447z"/>
		<path id="XMLID_216_" class="st7" d="M-763.4,450.4C-763.4,450.4-763.5,450.4-763.4,450.4C-763.5,450.4-763.4,450.4-763.4,450.4z"
			/>
		<path id="XMLID_217_" class="st7" d="M-981.8,523.5c0.3-0.5,0.6-1,0.9-1.5c0.1-0.1,0.1-0.2,0.2-0.3c0.1-0.1,0.1-0.2,0.2-0.3
			c0.1-0.1,0.1-0.2,0.2-0.3c0.1-0.1,0.1-0.2,0.2-0.3c-0.6,1-1.1,1.9-1.7,2.9C-981.8,523.6-981.8,523.5-981.8,523.5z"/>
		<path id="XMLID_218_" class="st7" d="M-985.5,528.7c0.2-0.3,0.5-0.6,0.7-0.9c0.2-0.3,0.5-0.7,0.7-1c-0.2,0.3-0.4,0.6-0.7,0.8
			C-985,528-985.2,528.3-985.5,528.7z"/>
		<path id="XMLID_219_" class="st7" d="M-983.9,526.5L-983.9,526.5L-983.9,526.5z"/>
		<path id="XMLID_220_" class="st7" d="M-982.6,524.7c-0.4,0.6-0.8,1.2-1.2,1.8c0,0,0,0,0-0.1c0.3-0.5,0.7-0.9,1-1.4
			c0.2-0.3,0.4-0.7,0.7-1C-982.2,524.2-982.4,524.4-982.6,524.7z"/>
		<path id="XMLID_221_" class="st7" d="M-987.9,531.5L-987.9,531.5c0.7-0.7,1.2-1.4,1.8-2.1c-0.2,0.3-0.5,0.6-0.7,0.9
			C-987.2,530.7-987.5,531.1-987.9,531.5z"/>
		<path id="XMLID_222_" class="st7" d="M-763.4,416.8c0-0.2-0.1-0.4-0.1-0.6s-0.1-0.4-0.1-0.6s-0.1-0.4-0.1-0.6
			c0.3,1.2,0.5,2.4,0.8,3.6c-0.1-0.4-0.1-0.8-0.2-1.2C-763.4,417.3-763.4,417-763.4,416.8z"/>
		<path id="XMLID_223_" class="st7" d="M-762.8,420c-0.1-0.4-0.1-0.9-0.2-1.3c0,0,0,0,0-0.1c0.2,1.2,0.4,2.4,0.6,3.5
			c0-0.3-0.1-0.6-0.1-0.9C-762.7,420.9-762.8,420.4-762.8,420z"/>
		<path id="XMLID_224_" class="st7" d="M-762.3,423.8c0-0.4-0.1-0.8-0.2-1.2c0-0.1,0-0.1,0-0.2c0.2,1.2,0.3,2.3,0.4,3.5
			c0-0.3-0.1-0.6-0.1-0.9C-762.2,424.6-762.2,424.2-762.3,423.8z"/>
		<path id="XMLID_225_" class="st7" d="M-761.9,427.4c0-0.4-0.1-0.8-0.1-1.2c0-0.1,0-0.1,0-0.2c0.1,1.2,0.2,2.4,0.3,3.5
			c0-0.3,0-0.7-0.1-1C-761.9,428.1-761.9,427.7-761.9,427.4z"/>
		<path id="XMLID_226_" class="st7" d="M-761.6,433.2c0,1.1,0,2.3,0,3.4c0-0.1,0-0.3,0-0.4c0-0.4,0-0.7,0-1.1s0-0.7,0-1.1
			C-761.6,433.7-761.6,433.5-761.6,433.2z"/>
		<path id="XMLID_227_" class="st7" d="M-761.7,431.9c0-0.4,0-0.7,0-1.1s0-0.8-0.1-1.1c0,0,0,0,0-0.1c0.1,1.2,0.1,2.4,0.1,3.5V433
			C-761.7,432.6-761.7,432.2-761.7,431.9z"/>
		<path id="XMLID_228_" class="st7" d="M-761.8,439.3c0-0.3,0-0.7,0.1-1c0-0.4,0-0.7,0.1-1.1c0-0.2,0-0.3,0-0.5
			c0,1.1-0.1,2.2-0.2,3.4C-761.9,439.9-761.9,439.6-761.8,439.3z"/>
		<path id="XMLID_229_" class="st7" d="M-762.3,443.6v-0.1c0-0.3,0.1-0.7,0.1-1s0.1-0.7,0.1-1s0.1-0.7,0.1-1c0-0.1,0-0.1,0-0.2
			C-762,441.4-762.1,442.5-762.3,443.6z"/>
		<path id="XMLID_230_" class="st7" d="M-762.8,447c0-0.1,0.1-0.3,0.1-0.4c0.1-0.3,0.1-0.7,0.2-1c0.1-0.3,0.1-0.7,0.2-1
			c0-0.3,0.1-0.5,0.1-0.8C-762.4,444.8-762.6,445.9-762.8,447z"/>
		<path id="XMLID_231_" class="st7" d="M-763.4,450.4c0.1-0.3,0.1-0.5,0.2-0.8c0.1-0.3,0.1-0.7,0.2-1c0.1-0.3,0.1-0.7,0.2-1
			c0-0.1,0.1-0.3,0.1-0.4C-763,448.2-763.2,449.3-763.4,450.4z"/>
		<path id="XMLID_233_" class="st7" d="M-764.3,453.7L-764.3,453.7c0.1-0.4,0.2-0.7,0.3-1.1c0.1-0.3,0.2-0.7,0.3-1
			c0.1-0.3,0.2-0.7,0.2-1c0-0.1,0-0.1,0-0.2C-763.7,451.6-764,452.7-764.3,453.7z"/>
		<path id="XMLID_237_" class="st7" d="M-765.3,457c0-0.1,0-0.1,0.1-0.2c0.1-0.3,0.2-0.7,0.3-1c0.1-0.3,0.2-0.7,0.3-1s0.2-0.7,0.3-1
			C-764.6,454.8-764.9,455.9-765.3,457z"/>
		<path id="XMLID_238_" class="st7" d="M-766.3,460c0.1-0.4,0.3-0.7,0.4-1.1c0.1-0.4,0.3-0.7,0.4-1.1c0.1-0.3,0.2-0.5,0.3-0.8
			C-765.5,458-765.9,459.1-766.3,460C-766.4,460.1-766.4,460.1-766.3,460z"/>
		<path id="XMLID_241_" class="st7" d="M-767.7,463.3c0.2-0.4,0.3-0.7,0.5-1.1s0.3-0.8,0.5-1.1c0.1-0.3,0.2-0.6,0.3-0.8
			C-766.8,461.3-767.3,462.3-767.7,463.3z"/>
		<path id="XMLID_246_" class="st7" d="M-769.1,466.3c0.1-0.2,0.2-0.5,0.4-0.7c0.2-0.4,0.4-0.7,0.5-1.1c0.2-0.4,0.3-0.7,0.5-1.1l0,0
			C-768.2,464.3-768.6,465.3-769.1,466.3z"/>
		<path id="XMLID_247_" class="st7" d="M-770.2,468.4c0.2-0.3,0.3-0.6,0.5-0.9s0.3-0.6,0.5-0.9c0,0,0-0.1,0.1-0.1
			c-0.5,1-1,2-1.6,2.9C-770.6,469-770.4,468.7-770.2,468.4z"/>
		<path id="XMLID_251_" class="st7" d="M-774.3,474.8c0.3-0.5,0.7-0.9,1-1.4c0.2-0.3,0.4-0.7,0.7-1c-0.6,0.9-1.2,1.7-1.8,2.6
			C-774.4,474.9-774.3,474.8-774.3,474.8z"/>
		<path id="XMLID_252_" class="st7" d="M-772.5,472.2c0-0.1,0.1-0.1,0.1-0.2c0.3-0.5,0.6-1,0.9-1.5c0.1-0.1,0.1-0.2,0.2-0.3
			c0.1-0.1,0.1-0.2,0.2-0.3s0.1-0.2,0.2-0.3c0.1-0.1,0.1-0.2,0.2-0.3C-771.3,470.3-771.9,471.2-772.5,472.2z"/>
		<path id="XMLID_253_" class="st7" d="M-982.1,523.9c0-0.1,0.1-0.1,0.1-0.2c0,0,0,0.1-0.1,0.1C-982,523.9-982,523.9-982.1,523.9z"
			/>
		<path id="XMLID_254_" class="st7" d="M-983.9,526.6L-983.9,526.6c0,0-0.1,0.1-0.1,0.2C-984,526.7-984,526.7-983.9,526.6z"/>
		<path id="XMLID_255_" class="st7" d="M-798.1,491.6c-0.6,0.2-1.2,0.5-1.7,0.7c0.2-0.1,0.5-0.2,0.7-0.3
			C-798.8,491.9-798.4,491.8-798.1,491.6z"/>
		<path id="XMLID_259_" class="st7" d="M-799.8,492.4c-0.1,0-0.2,0.1-0.3,0.1c0,0,0.1,0,0.1-0.1C-800,492.4-799.9,492.4-799.8,492.4
			z"/>
		<path id="XMLID_261_" class="st7" d="M-786.2,486.9c-0.8,0.6-1.5,1.1-2.3,1.7C-787.7,488.1-787,487.5-786.2,486.9z"/>
		<path id="XMLID_262_" class="st7" d="M-998.2,540.5L-998.2,540.5L-998.2,540.5z"/>
		<path id="XMLID_263_" class="st7" d="M-778.3,479.7c0.6-0.6,1.1-1.3,1.7-1.9c-0.6,0.8-1.3,1.5-1.9,2.2
			C-778.5,479.9-778.4,479.8-778.3,479.7z"/>
		<path id="XMLID_264_" class="st7" d="M-781.5,483c0.1-0.1,0.2-0.2,0.3-0.3c-0.7,0.7-1.4,1.3-2.1,1.9
			C-782.7,484.1-782.1,483.5-781.5,483z"/>
		<path id="XMLID_265_" class="st7" d="M-779,480.5c-0.5,0.6-1.1,1.1-1.6,1.7C-780.1,481.6-779.6,481.1-779,480.5z"/>
		<path id="XMLID_266_" class="st7" d="M-784.9,486c0.4-0.3,0.8-0.7,1.2-1c-0.6,0.5-1.2,1-1.9,1.5
			C-785.3,486.3-785.1,486.1-784.9,486z"/>
		<path id="XMLID_267_" class="st7" d="M-990.8,534.5c0.1-0.1,0.2-0.2,0.4-0.3l-0.1,0.1C-990.6,534.3-990.7,534.4-990.8,534.5z"/>
		<path id="XMLID_268_" class="st7" d="M-993,536.5C-993,536.5-992.9,536.5-993,536.5c0,0-0.2,0.1-0.3,0.2
			C-993.2,536.7-993.1,536.6-993,536.5z"/>
		<path id="XMLID_269_" class="st7" d="M-988.6,532.2c0.1-0.1,0.2-0.2,0.3-0.3l0.1-0.1l-0.1,0.1C-988.3,532-988.4,532.1-988.6,532.2
			z"/>
		<path id="XMLID_270_" class="st7" d="M-776.3,477.3c0.3-0.4,0.7-0.8,1-1.2c0.2-0.3,0.5-0.6,0.7-1
			C-775.1,475.9-775.7,476.6-776.3,477.3z"/>
		<path id="XMLID_271_" class="st7" d="M-995.9,538.8c0.2-0.1,0.4-0.3,0.5-0.4l-0.1,0.1C-995.6,538.6-995.7,538.7-995.9,538.8z"/>
		<path id="XMLID_272_" class="st7" d="M-986.1,529.4c0.1-0.1,0.1-0.2,0.2-0.2c0,0,0,0.1-0.1,0.1L-986.1,529.4z"/>
		<path id="XMLID_273_" class="st7" d="M-792.8,489c-0.5,0.3-1.1,0.6-1.6,0.9c0.1,0,0.2-0.1,0.2-0.1
			C-793.8,489.5-793.3,489.3-792.8,489z"/>
		<path id="XMLID_274_" class="st7" d="M-795.5,490.4c-0.5,0.3-1,0.5-1.5,0.7c0.1-0.1,0.2-0.1,0.3-0.2
			C-796.3,490.8-795.9,490.6-795.5,490.4z"/>
		<path id="XMLID_275_" class="st7" d="M-789.6,487c-0.8,0.5-1.6,1-2.4,1.5c0,0,0.1,0,0.1-0.1C-791.2,488-790.4,487.5-789.6,487z"/>
		<path id="XMLID_276_" class="st7" d="M-792.8,489c0.3-0.2,0.5-0.3,0.8-0.5C-792.3,488.7-792.6,488.8-792.8,489z"/>
		<path id="XMLID_277_" class="st7" d="M-798.1,491.6c0.4-0.2,0.7-0.3,1.1-0.5C-797.4,491.3-797.7,491.5-798.1,491.6z"/>
		<path id="XMLID_278_" class="st7" d="M-794.5,489.9c-0.3,0.2-0.7,0.3-1,0.5c0.3-0.1,0.5-0.3,0.8-0.4
			C-794.6,490-794.6,489.9-794.5,489.9z"/>
		<path id="XMLID_288_" class="st7" d="M-790,370.4c0.7,0.7,1.5,1.3,2.2,2c-0.4-0.4-0.8-0.8-1.2-1.2
			C-789.4,371-789.7,370.7-790,370.4z"/>
		<path id="XMLID_289_" class="st7" d="M-773.8,390.2c0.7,1.1,1.3,2.3,1.9,3.4c-0.5-1-1.1-2-1.6-2.9
			C-773.6,390.6-773.7,390.4-773.8,390.2z"/>
		<path id="XMLID_291_" class="st7" d="M-787.2,373.1c0.9,0.9,1.8,1.8,2.6,2.7C-785.4,374.9-786.3,374-787.2,373.1z"/>
		<path id="XMLID_295_" class="st7" d="M-793.6,367.3c-0.1-0.1-0.2-0.2-0.3-0.2C-793.8,367.2-793.7,367.2-793.6,367.3z"/>
		<path id="XMLID_296_" class="st7" d="M-798.4,363.8c-0.1-0.1-0.2-0.1-0.3-0.2C-798.6,363.7-798.5,363.7-798.4,363.8z"/>
		<path id="XMLID_298_" class="st7" d="M-779.1,382.3c-0.7-0.9-1.4-1.8-2.1-2.7C-780.5,380.5-779.8,381.4-779.1,382.3z"/>
		<path id="XMLID_299_" class="st7" d="M-781.9,378.8c-0.7-0.8-1.4-1.6-2.1-2.4C-783.3,377.2-782.6,378-781.9,378.8z"/>
		<path id="XMLID_300_" class="st7" d="M-791.1,369.4c-0.2-0.1-0.3-0.3-0.5-0.4C-791.4,369.2-791.2,369.3-791.1,369.4z"/>
		<path id="XMLID_301_" class="st7" d="M-795.8,365.6c-0.2-0.1-0.3-0.2-0.5-0.4C-796.1,365.4-796,365.5-795.8,365.6z"/>
		<path id="XMLID_307_" class="st7" d="M-764.7,411.8L-764.7,411.8L-764.7,411.8z"/>
		<path id="XMLID_308_" class="st7" d="M-766.6,405.5c0-0.1-0.1-0.1-0.1-0.2C-766.7,405.4-766.7,405.4-766.6,405.5z"/>
		<path id="XMLID_309_" class="st7" d="M-765.6,408.6L-765.6,408.6L-765.6,408.6z"/>
		<path id="XMLID_311_" class="st7" d="M-774.4,389.3c-0.5-0.9-1.1-1.7-1.6-2.6C-775.4,387.6-774.9,388.5-774.4,389.3z"/>
		<path id="XMLID_312_" class="st7" d="M-776.6,385.9c-0.7-1.1-1.5-2.1-2.2-3.2C-778,383.7-777.3,384.8-776.6,385.9z"/>
		<path id="XMLID_313_" class="st7" d="M-770.1,397.3c-0.5-1.1-1-2.1-1.6-3.2C-771.1,395.1-770.6,396.2-770.1,397.3z"/>
		<path id="XMLID_314_" class="st7" d="M-767.7,402.7c-0.1-0.2-0.2-0.4-0.2-0.6C-767.8,402.3-767.8,402.5-767.7,402.7z"/>
		<path id="XMLID_315_" class="st7" d="M-769,399.5c-0.1-0.1-0.1-0.3-0.2-0.4C-769.1,399.2-769.1,399.4-769,399.5z"/>
		<path id="XMLID_387_" class="st7" d="M-797.8,364.2c-0.2-0.1-0.4-0.3-0.6-0.4c0.7,0.5,1.4,1,2.1,1.5c-0.1-0.1-0.2-0.2-0.3-0.3
			C-797,364.7-797.4,364.5-797.8,364.2z"/>
		<path id="XMLID_388_" class="st7" d="M-795.8,365.6c0.6,0.5,1.3,1,1.9,1.4c-0.4-0.3-0.7-0.6-1.1-0.9
			C-795.3,366-795.5,365.8-795.8,365.6z"/>
		<path id="XMLID_389_" class="st7" d="M-793.5,367.4l-0.1-0.1c0.7,0.6,1.4,1.1,2.1,1.7c-0.1-0.1-0.3-0.2-0.4-0.3
			C-792.5,368.3-793,367.8-793.5,367.4z"/>
		<path id="XMLID_390_" class="st7" d="M-791.1,369.4c0.4,0.3,0.7,0.6,1.1,1c-0.2-0.1-0.3-0.3-0.5-0.4
			C-790.7,369.8-790.9,369.6-791.1,369.4z"/>
		<path id="XMLID_391_" class="st7" d="M-787.8,372.4c0.2,0.2,0.4,0.4,0.7,0.6C-787.4,372.9-787.6,372.7-787.8,372.4z"/>
		<path id="XMLID_392_" class="st7" d="M-774.4,389.3c0.2,0.3,0.4,0.6,0.6,0.9c-0.1-0.1-0.1-0.2-0.2-0.3
			C-774.1,389.7-774.2,389.5-774.4,389.3z"/>
		<path id="XMLID_393_" class="st7" d="M-779.1,382.3c0.1,0.1,0.2,0.3,0.3,0.4c0,0,0-0.1-0.1-0.1C-779,382.5-779,382.4-779.1,382.3z
			"/>
		<path id="XMLID_394_" class="st7" d="M-776,386.8c-0.2-0.3-0.4-0.6-0.6-0.9C-776.4,386.2-776.2,386.5-776,386.8z"/>
		<path id="XMLID_395_" class="st7" d="M-771.6,394.1c-0.1-0.1-0.1-0.3-0.2-0.4C-771.8,393.8-771.7,394-771.6,394.1z"/>
		<path id="XMLID_396_" class="st7" d="M-784.5,375.8c0.2,0.2,0.3,0.4,0.5,0.6c-0.1-0.1-0.3-0.3-0.4-0.4
			C-784.4,375.9-784.5,375.9-784.5,375.8z"/>
		<path id="XMLID_397_" class="st7" d="M-781.2,379.6c-0.2-0.3-0.5-0.6-0.7-0.9C-781.7,379-781.5,379.3-781.2,379.6z"/>
		<path id="XMLID_398_" class="st7" d="M-770.1,397.3c0.3,0.6,0.6,1.2,0.9,1.8c-0.2-0.4-0.4-0.9-0.6-1.3
			C-769.9,397.6-770,397.4-770.1,397.3z"/>
		<path id="XMLID_399_" class="st7" d="M-768.9,399.7c0-0.1-0.1-0.1-0.1-0.2c0.4,0.9,0.7,1.7,1.1,2.6c-0.1-0.2-0.1-0.3-0.2-0.5
			C-768.4,401-768.7,400.3-768.9,399.7z"/>
		<path id="XMLID_400_" class="st7" d="M-767.7,402.7c0.3,0.8,0.7,1.7,1,2.5c-0.2-0.6-0.4-1.1-0.6-1.7
			C-767.4,403.3-767.6,403-767.7,402.7z"/>
		<path id="XMLID_401_" class="st7" d="M-765.6,408.7C-765.6,408.6-765.6,408.6-765.6,408.7c0.3,1,0.6,2,0.9,3.1
			c-0.1-0.5-0.3-1-0.4-1.5C-765.3,409.7-765.4,409.2-765.6,408.7z"/>
		<path id="XMLID_402_" class="st7" d="M-766.6,405.6C-766.6,405.5-766.6,405.5-766.6,405.6c0.3,0.9,0.7,1.9,1,3
			c-0.1-0.5-0.3-0.9-0.5-1.4C-766.3,406.6-766.4,406.1-766.6,405.6z"/>
		<path id="XMLID_403_" class="st7" d="M-764.2,413.4c-0.1-0.3-0.1-0.5-0.2-0.8s-0.1-0.5-0.2-0.8l0,0c0.3,1.1,0.6,2.1,0.8,3.2
			c-0.1-0.3-0.1-0.5-0.2-0.8C-764.1,413.9-764.2,413.7-764.2,413.4z"/>
		<path id="XMLID_413_" class="st7" d="M-1017.7,546.7c0.6-0.1,1.2-0.3,1.8-0.4c0.1,0,0.1,0,0.2,0
			C-1016.3,546.4-1017,546.5-1017.7,546.7z"/>
		<path id="XMLID_414_" class="st7" d="M-1021.8,547.5c1-0.1,2-0.3,2.9-0.5h0.1C-1019.7,547.1-1020.7,547.3-1021.8,547.5z"/>
		<path id="XMLID_415_" class="st7" d="M-1014.5,545.9c0.5-0.1,1-0.3,1.5-0.4c0.1,0,0.2-0.1,0.3-0.1
			C-1013.3,545.5-1013.9,545.7-1014.5,545.9z"/>
		<path id="XMLID_416_" class="st7" d="M-1011.5,544.9c0.4-0.2,0.9-0.3,1.3-0.5c0.1,0,0.2-0.1,0.3-0.1
			C-1010.4,544.5-1010.9,544.7-1011.5,544.9z"/>
		<path id="XMLID_417_" class="st7" d="M-1008.6,543.8c0.2-0.1,0.4-0.1,0.5-0.2c0.2-0.1,0.4-0.2,0.6-0.3
			C-1007.8,543.5-1008.2,543.6-1008.6,543.8z"/>
		<path id="XMLID_418_" class="st7" d="M-1003,541.1c0.1-0.1,0.3-0.1,0.4-0.2c0.3-0.2,0.6-0.3,0.8-0.5c0.1,0,0.1-0.1,0.2-0.1
			C-1002.1,540.6-1002.6,540.8-1003,541.1z"/>
		<path id="XMLID_419_" class="st7" d="M-1005.8,542.5c0.1-0.1,0.3-0.1,0.4-0.2c0.3-0.2,0.7-0.3,1-0.5c0,0,0,0,0.1,0
			C-1004.8,542-1005.3,542.3-1005.8,542.5z"/>
		<path id="XMLID_420_" class="st7" d="M-981.9,523.7c0,0,0-0.1,0.1-0.1C-981.9,523.6-981.9,523.7-981.9,523.7L-981.9,523.7z"/>
		<path id="XMLID_421_" class="st7" d="M-983.8,526.4L-983.8,526.4C-983.8,526.5-983.8,526.5-983.8,526.4z"/>
		<path id="XMLID_422_" class="st7" d="M-990.4,534.1c0.2-0.2,0.3-0.3,0.5-0.5c-0.1,0.1-0.2,0.2-0.3,0.3S-990.3,534.1-990.4,534.1z"
			/>
		<path id="XMLID_423_" class="st7" d="M-992.3,535.9c-0.1,0.1-0.2,0.2-0.4,0.3C-992.5,536.1-992.4,536-992.3,535.9z"/>
		<path id="XMLID_424_" class="st7" d="M-988.1,531.7l0.1-0.1c0,0,0-0.1,0.1-0.1C-987.9,531.6-988,531.6-988.1,531.7L-988.1,531.7z"
			/>
		<path id="XMLID_425_" class="st7" d="M-997.6,540.1c0.1-0.1,0.3-0.2,0.4-0.3c-0.2,0.2-0.4,0.3-0.6,0.4
			C-997.8,540.2-997.7,540.1-997.6,540.1z"/>
		<path id="XMLID_426_" class="st7" d="M-995.3,538.4c0.2-0.1,0.3-0.2,0.5-0.4C-995,538.1-995.1,538.2-995.3,538.4
			C-995.3,538.3-995.3,538.4-995.3,538.4z"/>
		<path id="XMLID_427_" class="st7" d="M-985.9,529.2c0.1-0.2,0.3-0.3,0.4-0.5c-0.1,0.1-0.2,0.2-0.2,0.3
			C-985.8,529.1-985.9,529.1-985.9,529.2z"/>
		<g id="XMLID_5_" class="st1">
			<path id="XMLID_6_" class="st2" d="M-1182.8,389.9c-1.5-6.1-3.9-11.9-7.2-17.3c-3.2-5.2-7.1-9.9-11.7-14c-4.5-4-9.5-7.2-14.7-9.6
				c-3-1.3-6.1-2.4-9.2-3.1h-0.2c-2.4-0.6-4.7-0.9-7-1.1c-0.9-0.1-1.7-0.1-2.6-0.1s-1.7,0-2.6,0c-0.9,0-1.7,0.1-2.6,0.2
				c-0.9,0.1-1.7,0.2-2.6,0.3c-3.1,0.5-6.1,1.3-8.9,2.4c-1.9,0.7-3.8,1.7-5.6,2.7l0,0c-0.5,0.3-0.9,0.6-1.4,0.8l0,0l0,0l-0.5,0.3
				l0,0l-0.4,0.2l0,0l0,0l0,0c-0.5,0.3-1,0.7-1.5,1l0,0l0,0l0,0l-0.3,0.2l0.1,0.1v0.1l0,0h-0.2l-0.1-0.1h-0.1
				c-0.6,0.5-1.2,1-1.8,1.4l0,0c-0.1,0.1-0.2,0.2-0.3,0.2l-0.3,0.2l0,0c-0.4,0.4-0.8,0.8-1.2,1.2l0,0l0,0l0,0l0,0l0,0l0,0l0,0l0,0
				l-0.2,0.2l0,0c-0.1,0.1-0.2,0.2-0.2,0.2l-0.1,0.1l0,0l0,0l0,0c-0.4,0.4-0.7,1.1-1.1,1.1h-0.4l0,0l0,0c0,0.2-0.1,0.5-0.3,0.7h0.3
				l0,0c-1,0.4-0.8,1.2-1.1,1.2h-0.1l0,0l-0.1,0.6c-0.2,0.2-0.3,0.6-0.5,0.8v0.1l0,0l-0.2-0.1v-0.1l0,0c0,0.5-1,0.9-1,1.4l0,0
				l-0.1,0.3c-0.1,0.1-0.1,0.3-0.2,0.4c-0.1,0.2-0.2,0.4-0.4,0.6c-0.2,0.3-0.4,0.6-0.6,0.9c-0.1,0.1-0.2,0.3-0.2,0.4l-0.2,0.3
				c-0.1,0.2-0.2,0.4-0.4,0.6c-0.1,0.2-0.2,0.4-0.4,0.7c-0.2,0.3-0.2,0.4-0.3,0.7c-0.1,0.2-0.2,0.4-0.3,0.7
				c-0.1,0.3-0.3,0.5-0.4,0.8c-0.1,0.3-0.2,0.5-0.4,0.8c-0.1,0.3-0.2,0.5-0.4,0.8c-0.1,0.3-0.2,0.5-0.3,0.8
				c-0.1,0.2-0.2,0.5-0.3,0.7c-0.1,0.3-0.2,0.5-0.3,0.8c-0.1,0.3-0.2,0.5-0.3,0.8s-0.2,0.5-0.3,0.8c-0.1,0.2-0.2,0.5-0.2,0.7
				s-0.1,0.5-0.2,0.7c-0.1,0.2-0.1,0.5-0.2,0.7s-0.1,0.5-0.2,0.7l-0.2,0.7c-0.1,0.2-0.1,0.5-0.2,0.7c-0.1,0.2-0.1,0.5-0.2,0.7
				s-0.1,0.5-0.1,0.7c0,0.2-0.1,0.5-0.1,0.7s-0.1,0.5-0.1,0.7l-0.1,0.7c0,0.2-0.1,0.5-0.1,0.7c0,0.2-0.1,0.5-0.1,0.7
				s-0.1,0.5-0.1,0.7c0,0.2,0,0.5-0.1,0.7c0,0.2,0,0.5-0.1,0.7c0,0.2,0,0.5-0.1,0.7c0,0.2,0,0.5,0,0.7c0,0.2,0,0.5,0,0.7v1.5
				c0,0.3,0,0.5,0,0.8v1.5c0,0.3,0,0.5,0,0.8s0,0.5,0,0.8l0.1,1.6c0,0.3,0.1,0.6,0.1,0.8c0,0.3,0.1,0.6,0.1,0.8
				c0,0.3,0.1,0.6,0.1,0.8c0,0.3,0.1,0.6,0.1,0.8c0,0.3,0.1,0.6,0.1,0.9c0.1,0.3,0.1,0.6,0.2,0.9c0.1,0.3,0.1,0.6,0.2,0.9
				c0.1,0.3,0.1,0.6,0.2,0.9l1,4c0.1,0.4,0.2,0.7,0.3,1.1s0.2,0.7,0.4,1.1c0.1,0.4,0.2,0.7,0.4,1.1c0.1,0.4,0.3,0.7,0.4,1.1
				c0.2,0.5,0.4,0.9,0.6,1.4s0.4,0.9,0.6,1.4c0.2,0.5,0.4,0.9,0.6,1.4s0.4,0.9,0.6,1.4c0.9,1.9,2,3.8,3.1,5.6
				c1.1,1.8,2.3,3.5,3.6,5.2c1.3,1.6,2.6,3.2,4.1,4.7c1.4,1.5,2.9,2.9,4.5,4.2c0.4,0.3,0.7,0.6,1.1,0.9s0.7,0.6,1.1,0.9
				c0.4,0.3,0.8,0.6,1.1,0.9c0.4,0.3,0.8,0.6,1.2,0.8c0.3,0.2,0.6,0.4,0.9,0.6s0.6,0.4,0.9,0.6c0.3,0.2,0.6,0.4,0.9,0.6
				s0.6,0.4,0.9,0.6c0.3,0.2,0.5,0.3,0.8,0.5s0.5,0.3,0.8,0.5c0.3,0.1,0.5,0.3,0.8,0.4s0.5,0.3,0.8,0.4c0.3,0.1,0.5,0.3,0.7,0.4
				c0.3,0.1,0.5,0.2,0.7,0.4c0.2,0.1,0.5,0.2,0.7,0.3s0.5,0.2,0.7,0.3c0.2,0.1,0.5,0.2,0.7,0.3l1.4,0.6c0.2,0.1,0.5,0.2,0.7,0.3
				l1.3,0.5c0.2,0.1,0.4,0.1,0.7,0.2l3.9,1.1l3.8,0.8l3.9,0.4h0.7c0.2,0,0.4,0,0.7,0c0.2,0,0.4,0,0.7,0c0.2,0,0.5,0,0.7,0
				s0.5,0,0.7,0c0.2,0,0.5,0,0.7,0s0.5,0,0.7,0c0.2,0,0.5,0,0.7,0s0.5,0,0.7,0l0.7-0.1c0.2,0,0.5,0,0.7-0.1l3.2-0.4
				c0.2,0,0.4-0.1,0.7-0.1h0.2c0.3-0.1,0.6-0.1,0.9-0.2c0.3-0.1,0.6-0.1,0.9-0.2l0.9-0.2c0.4-0.1,0.7-0.2,1.1-0.3l1.1-0.3
				c0.4-0.1,0.7-0.2,1.1-0.4l1-0.4c0.1-0.1,0.3-0.1,0.4-0.2l0.6-0.3c0.2-0.1,0.3-0.1,0.5-0.2l0.4-0.1c0.2-0.1,0.4-0.2,0.6-0.3
				l0.6-0.3c0.1,0,0.2-0.1,0.3-0.1l0.7-0.4c0.2-0.1,0.4-0.2,0.6-0.3l0.4-0.2c0.1-0.1,0.2-0.1,0.3-0.2l0.2-0.1
				c0.1-0.1,0.3-0.2,0.4-0.3l0.4-0.2l0,0l0.2-0.1c0.3-0.2,0.7-0.4,1-0.6c2.5-1.6,4.8-3.6,6.9-5.8c2.1-2.2,4-4.7,5.6-7.4
				c1.6-2.7,3-5.6,4-8.7c0.4-1.2,0.8-2.5,1.1-3.9l0,0c0.5-1.9,0.8-3.7,1-5.5c0.4-3.3,0.5-6.6,0.3-10
				C-1181.5,396.8-1182,393.3-1182.8,389.9z"/>
			<polygon id="XMLID_98_" class="st2" points="-1254.6,347 -1254.8,347 -1254.9,347 -1254.9,347.1 -1254.7,347.1 -1254.7,347.1 			
				"/>
			<path id="XMLID_108_" class="st2" d="M-1167.2,386.8c-1.9-8.1-5.1-15.8-9.4-23c-4.1-6.9-9.2-13.2-15.1-18.5
				c-5.8-5.3-12.3-9.6-19.1-12.7c-3.9-1.8-7.9-3.2-12-4.2h-0.2c-3.1-0.7-6.2-1.2-9.2-1.5c-1.1-0.1-2.2-0.2-3.3-0.2s-2.2,0-3.3,0
				c-1.1,0-2.2,0.1-3.3,0.2c-1.1,0.1-2.2,0.2-3.3,0.4c-4,0.6-8,1.7-11.7,3.2c-2.5,1-5,2.2-7.4,3.6l0,0c-0.6,0.4-1.2,0.7-1.8,1.1
				v-0.1v-0.2l0,0l-1.6-2.3l-0.2,0.3l0.2-0.3l1.6,2.3l0,0l0,0l0,0l-0.4,0.2v0.1l-0.1,0.2c-0.1,0.1,0,0.2-0.2,0.3h0.2l0,0l-0.6,0.3
				l-0.1-0.1l-0.1-0.1h-0.2c-0.6,1-1.1,1-2.1,1.5v0.5h0.2h0.1l-0.2-0.1c-0.1,0.1-0.3,0.1-0.4,0.2v-0.1l0,0l0,0l0,0
				c-0.8,0.6-1.6,1.3-2.3,1.9l0,0c-0.1,0.1-0.3,0.2-0.4,0.4l-0.3,0.3l0,0c-0.6,0.5-1.1,1-1.6,1.6l0,0l0,0l0,0l-0.1,0.1l0,0l0,0l0,0
				l0,0c-0.2,0.2-0.4,0.4-0.6,0.6l-0.2,0.2c-0.5,0.5-0.9,1-1.4,1.5l0,0l0,0c-0.3,0.3-0.5,0.6-0.8,1l0,0l0,0l0,0l0,0
				c-0.4,0.5-0.9,1.1-1.3,1.6l0,0l0,0l0,0l0,0l-0.1,0.1c-0.2,0.2-0.3,0.4-0.5,0.6h0.2l-0.2,0.6l0,0l-0.3-0.2
				c-0.4,0.5-0.8,1.1-1.2,1.7c0,0,0,0.1-0.1,0.1l-0.2,0.3c-0.1,0.2-0.2,0.4-0.3,0.5l0,0l0,0h-0.1l0,0h-0.1l-0.1,0.1l0,0l0,0l0,0
				c-0.2,0.4-0.4,0.7-0.6,1c-0.3,0.4-0.5,0.8-0.7,1.2l-0.3,0.6h-0.1l0,0v0.1l0,0c-0.2,0-0.3,0.5-0.5,0.8c-0.2,0.3-0.3,0.5-0.5,0.8
				c-0.2,0.3-0.3,0.6-0.4,0.9c-0.1,0.3-0.3,0.6-0.4,0.9c-0.2,0.3-0.3,0.7-0.5,1c-0.2,0.4-0.3,0.7-0.5,1.1c-0.2,0.4-0.3,0.7-0.5,1.1
				c-0.1,0.4-0.3,0.7-0.4,1.1c-0.1,0.3-0.3,0.7-0.4,1c-0.1,0.3-0.2,0.7-0.4,1c-0.1,0.3-0.2,0.7-0.4,1c-0.1,0.3-0.2,0.7-0.3,1
				s-0.2,0.6-0.3,1c-0.1,0.3-0.2,0.6-0.3,1c-0.1,0.3-0.2,0.6-0.3,1c-0.1,0.3-0.2,0.7-0.3,1s-0.2,0.6-0.2,0.9c-0.1,0.3-0.1,0.6-0.2,1
				c-0.1,0.3-0.1,0.6-0.2,1c-0.1,0.3-0.1,0.6-0.2,1c-0.1,0.3-0.1,0.6-0.2,0.9c-0.1,0.3-0.1,0.6-0.2,1c-0.1,0.3-0.1,0.6-0.1,1
				c0,0.3-0.1,0.6-0.1,1s-0.1,0.6-0.1,1c0,0.3-0.1,0.6-0.1,1c0,0.3-0.1,0.6-0.1,1c0,0.3-0.1,0.6-0.1,1c0,0.3,0,0.7-0.1,1
				c0,0.3,0,0.7-0.1,1c0,0.3,0,0.7,0,1s0,0.7,0,1s0,0.7,0,1s0,0.7,0,1s0,0.7,0,1s0,0.7,0,1c0,0.4,0,0.7,0,1.1c0,0.3,0,0.7,0.1,1.1
				c0,0.4,0,0.7,0.1,1.1c0.1,0.4,0.1,0.7,0.1,1.1s0.1,0.7,0.1,1.1s0.1,0.7,0.1,1.1s0.1,0.7,0.1,1.1c0.1,0.4,0.1,0.7,0.2,1.1
				c0.1,0.4,0.1,0.8,0.2,1.2c0.1,0.4,0.1,0.8,0.2,1.2c0.1,0.4,0.1,0.8,0.2,1.2c0.1,0.4,0.2,0.8,0.2,1.2l1.3,5.3
				c0.1,0.5,0.3,1,0.4,1.5c0.1,0.5,0.3,1,0.5,1.5s0.3,1,0.5,1.5s0.3,1,0.5,1.4c0.2,0.6,0.5,1.3,0.7,1.9c0.2,0.6,0.5,1.2,0.8,1.8
				c0.3,0.6,0.5,1.2,0.8,1.8c0.3,0.6,0.6,1.2,0.8,1.8c1.2,2.5,2.6,5,4,7.4c1.4,2.3,3,4.6,4.7,6.8c1.7,2.2,3.4,4.3,5.3,6.3
				c1.8,2,3.8,3.9,5.8,5.6c0.5,0.4,1,0.8,1.4,1.2c0.5,0.4,1,0.8,1.5,1.2c0.5,0.4,1,0.8,1.5,1.1c0.5,0.4,1,0.7,1.5,1.1
				c0.4,0.3,0.8,0.5,1.1,0.8c0.4,0.3,0.8,0.5,1.2,0.8s0.8,0.5,1.2,0.8c0.4,0.2,0.8,0.5,1.2,0.7c0.3,0.2,0.7,0.4,1,0.6s0.7,0.4,1,0.6
				s0.7,0.4,1,0.6s0.7,0.4,1,0.6s0.6,0.3,1,0.5c0.3,0.2,0.6,0.3,1,0.5c0.3,0.2,0.6,0.3,1,0.5c0.3,0.1,0.6,0.3,1,0.4
				c0.3,0.1,0.6,0.3,0.9,0.4c0.3,0.1,0.6,0.3,0.9,0.4s0.6,0.3,0.9,0.4c0.3,0.1,0.6,0.2,0.9,0.4c0.3,0.1,0.6,0.2,0.9,0.3
				c0.3,0.1,0.6,0.2,0.9,0.3c0.3,0.1,0.6,0.2,0.9,0.3c0.3,0.1,0.6,0.2,0.9,0.3c0.3,0.1,0.6,0.2,0.8,0.3c0.3,0.1,0.6,0.2,0.8,0.2
				s0.6,0.2,0.8,0.2c0.3,0.1,0.6,0.2,0.8,0.2c0.3,0.1,0.6,0.1,0.8,0.2c0.3,0.1,0.6,0.1,0.8,0.2c0.3,0.1,0.6,0.1,0.8,0.2
				c0.3,0.1,0.6,0.1,0.8,0.2l0.8,0.2c0.3,0.1,0.6,0.1,0.8,0.1c0.3,0,0.6,0.1,0.8,0.1c0.3,0,0.6,0.1,0.8,0.1l2.2,0.3
				c0.2,0,0.5,0,0.7,0.1h0.1v1.5l0.1-1.5c0.4,0,0.7,0.1,0.9,0.1c0.3,0,0.6,0,0.9,0.1c0.3,0,0.6,0,0.9,0s0.6,0,0.9,0
				c0.3,0,0.6,0,0.9,0s0.6,0,0.9,0c0.3,0,0.6,0,0.9,0s0.6,0,0.9,0c0.3,0,0.6,0,0.9,0s0.6,0,0.9-0.1c0.3,0,0.6,0,0.9-0.1
				c0.3,0,0.6-0.1,0.9-0.1l4.1-0.6c0.3-0.1,0.6-0.1,0.9-0.2l0.4,1.4l-0.3-1.5h0.1c0.5-0.1,0.8-0.2,1.2-0.3c0.4-0.1,0.8-0.2,1.1-0.3
				l1.1-0.3c0.5-0.1,1-0.3,1.4-0.4l1.4-0.4c0.5-0.2,0.9-0.3,1.4-0.5l1.4-0.5c0.2-0.1,0.4-0.2,0.6-0.3l0.8-0.3
				c0.2-0.1,0.4-0.2,0.7-0.3l0.4-0.2c0.3-0.1,0.5-0.2,0.8-0.4l0.8-0.4c0.1-0.1,0.3-0.1,0.4-0.2l1-0.5c0.2-0.1,0.5-0.3,0.7-0.4
				l0.5-0.2c0.2-0.1,0.3-0.2,0.5-0.3l0.3-0.2c0.2-0.1,0.4-0.2,0.5-0.3l0.5-0.3l0,0l0,0l0.3-0.2c0.4-0.3,0.9-0.5,1.3-0.8
				c3.3-2.2,6.3-4.8,9-7.7c2.7-3,5.2-6.3,7.3-9.9c2.1-3.6,3.9-7.5,5.2-11.5c0.5-1.6,1-3.3,1.5-5.2v-0.1c0.6-2.5,1-4.9,1.3-7.3
				c0.6-4.3,0.7-8.8,0.4-13.3C-1165.4,396-1166.1,391.4-1167.2,386.8z M-1260.2,345.2c0.4-0.3,0.9-0.5,1.3-0.7h0.1l0,0l0.2-0.1l0,0
				h0.1l0,0c0,0,0,0-0.1,0c-0.1,0-0.1,0.1-0.2,0.1c-0.1,0.1-0.2,0.1-0.3,0.2l-0.2,0.1C-1259.6,344.9-1259.9,345.1-1260.2,345.2
				L-1260.2,345.2L-1260.2,345.2z M-1254,342.3L-1254,342.3L-1254,342.3l0.5-0.2c0.2-0.1,0.4-0.1,0.6-0.2h0.1l0,0v-0.2l0,0l0,0l0,0
				l0,0l0.7-0.2h0.1c0.1,0,0.2-0.1,0.4-0.1v-0.1l1-0.4l0,0l0.1,0.2c0.1,0,0.2-0.1,0.3-0.1v-0.1l0,0l0.9-0.2v0.1l0.2-0.1l0,0l0.2-0.1
				c0.1,0,0.3-0.1,0.4-0.1l0,0l0.2-0.1l0,0c0.1,0,0.2-0.1,0.3-0.1c0.1-0.1,0.2-0.2,0.4-0.2l0.3-0.3l0,0l0.1,0.3h0.2
				c0.1,0,0.3-0.1,0.4-0.1v-0.1l0.2-0.1l0,0l0,0l0,0l0.1,0.1v0.1c0.1,0,0.2,0,0.2,0v-0.1l0,0l1.4-0.2h0.1l0,0c0.2,0,0.3-0.1,0.5-0.1
				l1.9-0.2c0.3,0,0.5-0.1,0.8-0.1c0.3,0,0.5,0,0.8-0.1c0.3,0,0.5,0,0.8-0.1c0.3,0,0.5,0,0.8,0s0.5,0,0.8,0c0.3,0,0.5,0,0.8,0
				c0.5,0,1,0,1.5,0c0.2,0,0.5,0,0.7,0c0.2,0,0.5,0,0.7,0h0.7c0.3,0,0.5,0,0.7,0h0.3l2.6,0.3c0.2,0,0.5,0.1,0.7,0.1s0.5,0.1,0.7,0.1
				l1.4,0.2c0.2,0,0.5,0.1,0.7,0.1c0.1,0,0.2,0,0.3,0.1l0,0l0.4,0.1h0.1c0.2,0.1,0.5,0.1,0.7,0.2l2.7,0.7l0,0l0.2,0.1
				c0.2,0.1,0.5,0.1,0.7,0.2c0.3,0.1,0.5,0.2,0.8,0.2c0.2,0.1,0.5,0.2,0.7,0.2l0.7,0.3c0.3,0.1,0.5,0.2,0.7,0.3
				c0.3,0.1,0.5,0.2,0.8,0.3s0.5,0.2,0.8,0.3c0.3,0.1,0.5,0.2,0.8,0.3s0.5,0.2,0.8,0.3c0.3,0.1,0.6,0.2,0.8,0.4
				c0.3,0.1,0.6,0.3,0.8,0.4c0.3,0.1,0.5,0.3,0.8,0.4c0.3,0.1,0.5,0.3,0.8,0.4c0.3,0.2,0.6,0.3,0.9,0.5c0.3,0.2,0.6,0.3,0.9,0.5
				c0.3,0.2,0.6,0.3,0.9,0.5c0.3,0.2,0.6,0.3,0.9,0.5c0.3,0.2,0.7,0.4,1,0.6c0.3,0.2,0.7,0.4,1,0.6c0.3,0.2,0.7,0.4,1,0.6
				c0.3,0.2,0.7,0.4,1,0.7c0.4,0.3,0.9,0.6,1.3,0.9c0.4,0.3,0.9,0.6,1.3,1c0.4,0.3,0.8,0.7,1.3,1c0.4,0.3,0.8,0.7,1.2,1
				c1.7,1.5,3.4,3,5,4.7c1.6,1.6,3.1,3.4,4.5,5.2c1.4,1.8,2.8,3.7,4,5.7c1.2,2,2.4,4,3.4,6.1c0.2,0.5,0.5,1,0.7,1.5s0.5,1,0.7,1.5
				c0.2,0.5,0.4,1,0.6,1.5s0.4,1,0.6,1.6c0.1,0.4,0.3,0.8,0.4,1.2c0.1,0.4,0.3,0.8,0.4,1.2c0.1,0.4,0.3,0.8,0.4,1.2
				c0.1,0.4,0.2,0.8,0.4,1.2l1.1,4.4c0.1,0.3,0.1,0.7,0.2,1c0.1,0.3,0.1,0.7,0.2,1c0.1,0.3,0.1,0.7,0.2,1c0.1,0.3,0.1,0.7,0.2,1
				c0,0.3,0.1,0.6,0.1,0.9s0.1,0.6,0.1,0.9s0.1,0.6,0.1,0.9s0.1,0.6,0.1,0.9s0.1,0.6,0.1,0.9s0,0.6,0.1,0.9c0,0.3,0,0.6,0,0.9
				s0,0.6,0,0.9s0,0.6,0,0.8c0,0.3,0,0.6,0,0.8c0,0.3,0,0.6,0,0.8c0,0.3,0,0.6,0,0.8c0,0.3,0,0.6,0,0.8c0,0.3,0,0.6,0,0.8
				c0,0.3,0,0.5-0.1,0.8c0,0.3,0,0.5-0.1,0.8c0,0.3,0,0.5-0.1,0.8c0,0.3-0.1,0.5-0.1,0.8s-0.1,0.5-0.1,0.8s-0.1,0.5-0.1,0.8
				s-0.1,0.5-0.1,0.8s-0.1,0.5-0.1,0.8s-0.1,0.5-0.1,0.8c0,0.2-0.1,0.5-0.1,0.7l0,0l-0.6,2.5v0.1l-0.3,1.3l0,0c0,0.1,0,0.1-0.1,0.2
				c-0.1,0.3-0.2,0.5-0.2,0.8c-0.1,0.3-0.2,0.5-0.3,0.8s-0.2,0.5-0.3,0.8c-0.1,0.3-0.2,0.6-0.3,0.8c-0.1,0.3-0.2,0.6-0.3,0.8
				c-0.1,0.3-0.2,0.6-0.3,0.8c-0.1,0.3-0.2,0.6-0.3,0.8c-0.1,0.3-0.3,0.6-0.4,0.9c-0.1,0.3-0.3,0.6-0.4,0.9
				c-0.1,0.3-0.3,0.6-0.4,0.9c-0.1,0.3-0.3,0.6-0.4,0.9c-0.1,0.2-0.3,0.5-0.4,0.7c-0.1,0.2-0.3,0.5-0.4,0.7
				c-0.1,0.2-0.3,0.5-0.4,0.7c-0.1,0.2-0.3,0.5-0.4,0.7c-0.4,0.7-0.9,1.5-1.4,2.2l-0.1,0.1c-0.1,0.1-0.2,0.3-0.3,0.4l-0.3,0.4
				c-0.3,0.4-0.6,0.9-0.9,1.3c-0.1,0.2-0.3,0.4-0.4,0.6l-0.4,0.4c-0.2,0.3-0.5,0.6-0.7,0.9l-0.2,0.2c-0.2,0.2-0.3,0.4-0.5,0.5
				l-0.4,0.4c-0.3,0.3-0.5,0.6-0.8,0.9l-0.1,0.1c-0.2,0.2-0.4,0.4-0.5,0.5l-0.3,0.3c-0.3,0.3-0.5,0.5-0.8,0.8l-0.2,0.2
				c-0.2,0.2-0.4,0.3-0.6,0.5l-0.4,0.3c-0.3,0.3-0.6,0.5-0.9,0.8c-0.2,0.2-0.4,0.4-0.7,0.5l-0.4,0.3c-0.3,0.2-0.6,0.5-0.9,0.7
				l-0.2,0.1c-0.2,0.2-0.5,0.3-0.7,0.5l-0.4,0.3c-0.3,0.2-0.6,0.4-1,0.7c-2.8,1.8-5.7,3.3-8.8,4.4c-3.2,1.2-6.6,2.1-10.1,2.5
				c-1,0.1-1.9,0.2-2.9,0.3c-0.9,0.1-1.9,0.1-2.9,0.1c-0.4,0-0.8,0-1.1,0c-0.6,0-1.1,0-1.7,0c-0.9,0-1.9-0.1-2.8-0.2
				c-6.1-0.6-12.2-2.2-18.1-4.9c-5.7-2.6-11.1-6.2-16-10.5c-4.9-4.4-9.1-9.5-12.6-15.1c-3.6-5.8-6.2-12.1-7.9-18.7
				c-0.9-3.7-1.5-7.5-1.8-11.2c-0.2-3.7-0.2-7.4,0.3-11c0.4-3.6,1.2-7.1,2.3-10.4c1.1-3.4,2.6-6.6,4.4-9.7c1.8-3,3.9-5.9,6.2-8.4
				c2.3-2.5,4.9-4.7,7.7-6.6c0.9-0.6,1.9-1.2,3-1.8c0.3-0.2,0.6-0.3,0.9-0.5l0.2-0.1c0.1-0.1,0.2-0.1,0.3-0.2c0.1,0,0.1-0.1,0.2-0.1
				c0,0,0,0,0.1,0c0.2-0.1,0.3-0.2,0.5-0.2c0.4-0.2,0.8-0.4,1.3-0.6l0,0l0,0l0,0l0,0c-0.4,0.2-0.8,0.4-1.2,0.6l0,0l0.6-0.3
				c0.2-0.1,0.3-0.1,0.5-0.2l0.2-0.1l0,0l0,0l0,0l0.3-0.1l0,0l0,0l0,0l0.2-0.1l0,0c0,0,0,0-0.1,0l-0.1,0.1l0,0l0,0l0,0l1.9-0.8
				c-0.6,0.2-1.1,0.5-1.7,0.7l0,0l0,0l0.2-0.1c0.5-0.2,0.9-0.4,1.4-0.6l0,0"/>
			<polygon id="XMLID_110_" class="st2" points="-1258,328.7 -1258.1,328.7 -1258.1,328.8 -1257.8,328.7 -1257.7,328.6 
				-1258.8,325.9 -1258.8,325.9 -1258.8,325.9 -1258.8,325.9 -1258.8,325.9 -1258.8,325.9 -1258.8,325.9 -1257.8,328.6 			"/>
			<path id="XMLID_111_" class="st8" d="M-1258.8,325.9h0.2l0,0l0,0c0,0,0,0,0.1-0.1l0.2-0.3c0.4-0.2,0.8-0.6,1.2-0.6l0,0
				c0.1,0,0.2,0,0.3,0l0,0c0.1,0,0.5,0,0.7-0.1c0.1,0-0.5,0,0.5,0l0,0l0,0l0,0l-0.5,0.1h-0.2l0,0l-0.7,0.2l-0.1-0.2l0,0l-0.2,0.2
				c-0.2,0.1-0.4,0.2-0.6,0.3c-0.1,0-0.2,0.1-0.3,0.1l-0.4,0.1v0.1c0,0,0,0-0.1,0L-1258.8,325.9
				C-1258.8,325.8-1258.8,325.8-1258.8,325.9L-1258.8,325.9L-1258.8,325.9L-1258.8,325.9z"/>
			<polygon id="XMLID_112_" class="st8" points="-1259.4,326 -1259.2,325.9 -1259.2,325.9 -1259.7,325.9 -1259.7,325.9 -1259.6,326 
							"/>
			<path id="XMLID_115_" class="st8" d="M-1160.2,403.9c0-0.4,0-0.7,0-1.1s0-0.8,0-1.1c0-0.4,0-0.8-0.1-1.1c0-0.4,0-0.8-0.1-1.1
				c0-0.4-0.1-0.8-0.1-1.1c0-0.4-0.1-0.8-0.1-1.2c0-0.4-0.1-0.8-0.1-1.2s-0.1-0.8-0.1-1.2s-0.1-0.8-0.2-1.2s-0.1-0.9-0.2-1.3
				c-0.1-0.4-0.1-0.9-0.2-1.3c-0.1-0.4-0.2-0.9-0.2-1.3c-0.1-0.4-0.2-0.9-0.3-1.3l-1.4-5.7c-0.1-0.5-0.3-1.1-0.5-1.6
				s-0.3-1.1-0.5-1.6s-0.3-1-0.5-1.6c-0.2-0.5-0.4-1-0.5-1.6c-0.2-0.7-0.5-1.3-0.8-2c-0.3-0.7-0.5-1.3-0.8-2c-0.3-0.7-0.6-1.3-0.9-2
				c-0.3-0.6-0.6-1.3-0.9-1.9c-1.3-2.7-2.7-5.4-4.3-7.9c-1.6-2.5-3.2-5-5-7.3c-1.8-2.3-3.7-4.6-5.7-6.7c-2-2.1-4.1-4.1-6.3-6
				c-0.5-0.4-1-0.9-1.6-1.3c-0.5-0.4-1-0.9-1.6-1.3c-0.5-0.4-1.1-0.8-1.6-1.2s-1.1-0.8-1.6-1.2c-0.4-0.3-0.8-0.6-1.2-0.9
				c-0.4-0.3-0.8-0.6-1.3-0.8c-0.4-0.3-0.8-0.5-1.3-0.8c-0.4-0.3-0.8-0.5-1.3-0.8c-0.4-0.2-0.7-0.4-1.1-0.7
				c-0.4-0.2-0.7-0.4-1.1-0.6c-0.4-0.2-0.8-0.4-1.1-0.6c-0.4-0.2-0.8-0.4-1.1-0.6c-0.3-0.2-0.7-0.4-1-0.5c-0.3-0.2-0.7-0.3-1-0.5
				c-0.3-0.2-0.7-0.3-1-0.5c-0.3-0.2-0.7-0.3-1-0.5c-0.3-0.1-0.7-0.3-1-0.4c-0.3-0.1-0.7-0.3-1-0.4c-0.3-0.1-0.7-0.3-1-0.4
				c-0.3-0.1-0.7-0.3-1-0.4c-0.3-0.1-0.6-0.2-0.9-0.3c-0.3-0.1-0.6-0.2-0.9-0.3c-0.3-0.1-0.6-0.2-0.9-0.3c-0.3-0.1-0.6-0.2-0.9-0.3
				c-0.3-0.1-0.6-0.2-0.9-0.3c-0.3-0.1-0.6-0.2-0.9-0.3c-0.1,0-0.3-0.1-0.4-0.1l0,0l-1.3-0.3h-0.1l-1.5-0.4l0,0
				c-0.1,0-0.2,0-0.3-0.1c-0.3-0.1-0.6-0.1-0.9-0.2c-0.3-0.1-0.6-0.1-0.9-0.2c-0.3-0.1-0.6-0.1-0.9-0.2c-0.3-0.1-0.6-0.1-0.9-0.2
				c-0.3,0-0.6-0.1-0.9-0.1s-0.6-0.1-0.9-0.1c-0.3,0-0.5-0.1-0.8-0.1l-0.8-0.1c-0.3,0-0.5-0.1-0.8-0.1s-0.5-0.1-0.9-0.1h-0.3
				c-0.3,0-0.6,0-0.9-0.1c-0.3,0-0.6,0-0.9-0.1c-0.3,0-0.6,0-0.9,0c-0.3,0-0.6,0-0.9,0s-0.6,0-1,0c-0.3,0-0.6,0-1,0
				c-0.3,0-0.6,0-1,0c-0.3,0-0.6,0-1,0c-0.3,0-0.7,0-1,0.1c-0.3,0-0.7,0-1,0.1c-0.3,0-0.7,0.1-1,0.1c-0.3,0-0.7,0.1-1,0.1l-2.3,0.3
				c-0.1,0-0.2,0-0.3,0.1l0,0l0,0c0,0-0.2,0.1-0.3,0.1l-1,0.2c-0.5,0.1-0.7,0.2-1.7,0.3l0,0l0,0l0,0l0,0l-0.1,0.1h0.1l0,0v-0.1
				c0,0,0,0,0,0.1h-0.1c-0.8,0.1-0.8,0.2-1.1,0.2c-0.2,0-0.4,0.3-0.7,0.3v0.2l0,0v-0.4l0,0l-0.2,0.1l-0.7,0.2l-0.1,0.1l0,0l0,0h0.1
				l0.9,2.9l0,0l-0.9-2.9h-0.1l0,0l-0.2,0.1V324l-0.5,0.1l0,0c-0.4,0-0.7,0.3-1.1,0.4c-0.3,0.1-0.5,0.2-0.8,0.3
				c-0.1,0-0.2,0.1-0.4,0.2c-0.1,0-0.2,0.2-0.4,0.2l0,0c-0.1,0-0.1,0-0.2,0.1c-0.1,0-0.4,0.1-0.4,0.1l0,0v0.1l0,0
				c-1,0.1-1.1,0.3-1.5,0.5l-0.4,0.1c-0.1,0-0.2,0.1-0.2,0.1h0.1l0,0h-0.1l0,0l0,0l1.1,2.7h-0.1l-0.2,0.1v-0.1h0.1h0.2l-1.1-2.7
				h-0.2h-0.3h-0.2h-0.1l0,0l0.1,0.2l0,0c-0.6,0.2-1.2,0.5-1.8,0.8l-0.3,0.1l0,0h-0.1l-0.2,0.1l0,0l-0.4,0.2l0,0l0,0
				c-0.7,0.3-1.4,0.7-2.2,1.1l0,0l-0.3,0.2l0,0c-0.1,0.1-0.3,0.1-0.4,0.2l-0.3,0.1h-0.1c-0.2,0.1-0.4,0.2-0.7,0.4
				c-1.5,0.8-2.8,1.7-4.1,2.6c-3.5,2.4-6.8,5.3-9.7,8.5c-2.9,3.2-5.5,6.9-7.8,10.8c-2.2,3.9-4.1,8.1-5.5,12.4
				c-1.4,4.3-2.4,8.8-2.9,13.4s-0.7,9.4-0.4,14.1c0.3,4.8,1.1,9.7,2.2,14.5c2.1,8.5,5.4,16.6,9.9,24.1c4.4,7.3,9.7,13.8,15.9,19.5
				c6.1,5.6,12.9,10.2,20.1,13.6c7.4,3.5,15.1,5.6,22.8,6.3c1.2,0.1,2.4,0.2,3.6,0.2c0.7,0,1.4,0,2.2,0c0.5,0,1,0,1.4,0
				c1.2,0,2.4-0.1,3.6-0.2s2.4-0.2,3.6-0.4c4.4-0.6,8.6-1.7,12.7-3.3c3.9-1.5,7.6-3.4,11-5.7c0.4-0.3,0.8-0.6,1.2-0.9l0.4-0.3
				c0.3-0.2,0.6-0.4,0.9-0.7l0.2-0.1c0.4-0.3,0.8-0.6,1.1-0.9l0.5-0.4c0.3-0.2,0.6-0.5,0.9-0.7c0.4-0.3,0.7-0.6,1.1-1l0.5-0.5
				c0.2-0.2,0.5-0.4,0.7-0.6l0.3-0.3c0.3-0.3,0.6-0.6,1-1l0.5-0.5c0.2-0.2,0.4-0.4,0.7-0.7l0.1-0.1c0.3-0.4,0.7-0.7,1-1.1l0.5-0.6
				c0.2-0.2,0.4-0.4,0.6-0.7l0.2-0.3c0.3-0.4,0.6-0.8,0.9-1.2l0.4-0.6c0.2-0.2,0.4-0.5,0.5-0.7c0.4-0.5,0.8-1.1,1.2-1.7l0.3-0.5
				c0.1-0.2,0.2-0.3,0.4-0.6l0.1-0.1c0.6-1,1.2-1.9,1.8-2.9c0.2-0.3,0.4-0.6,0.5-0.9c0.2-0.3,0.3-0.6,0.5-0.9
				c0.2-0.3,0.3-0.6,0.5-0.9c0.2-0.3,0.3-0.6,0.5-1c0.2-0.4,0.4-0.7,0.5-1.1c0.2-0.4,0.4-0.8,0.5-1.1c0.2-0.4,0.3-0.8,0.5-1.1
				c0.2-0.3,0.3-0.8,0.5-1.2c0.1-0.4,0.3-0.7,0.4-1.1c0.1-0.4,0.3-0.7,0.4-1.1c0.1-0.4,0.3-0.7,0.4-1.1c0.1-0.4,0.3-0.7,0.4-1.1
				c0.1-0.3,0.2-0.7,0.3-1s0.2-0.7,0.3-1c0.1-0.3,0.2-0.7,0.3-1c0.1-0.4,0.2-0.7,0.3-1.1v-0.1l0,0l0.2-0.8c0,0,0,0,0-0.1l0.2-1l0,0
				l0.2-1l0,0l0,0c0.1-0.3,0.1-0.7,0.2-1c0.1-0.3,0.1-0.7,0.2-1c0.1-0.3,0.1-0.7,0.2-1c0.1-0.3,0.1-0.7,0.2-1s0.1-0.7,0.2-1
				c0-0.3,0.1-0.7,0.1-1s0.1-0.7,0.1-1s0.1-0.7,0.1-1s0.1-0.7,0.1-1c0-0.4,0.1-0.7,0.1-1.1s0-0.7,0.1-1.1c0-0.4,0-0.7,0-1.1
				s0-0.7,0-1.1s0-0.7,0-1.1s0-0.7,0-1.1C-1160.2,404.6-1160.2,404.2-1160.2,403.9z M-1165.6,413.8c-0.3,2.4-0.8,4.8-1.3,7.3v0.1
				c-0.5,1.9-1,3.6-1.5,5.2c-1.4,4-3.1,7.9-5.2,11.5s-4.6,6.9-7.3,9.9c-2.7,2.9-5.7,5.5-9,7.7c-0.4,0.3-0.9,0.6-1.3,0.8l-0.3,0.2
				l0,0l0,0l-0.5,0.3c-0.2,0.1-0.4,0.2-0.5,0.3l-0.3,0.2c-0.1,0.1-0.3,0.2-0.5,0.3l-0.5,0.2c-0.2,0.1-0.5,0.3-0.7,0.4l-1,0.5
				c-0.1,0.1-0.3,0.1-0.4,0.2l-0.8,0.4c-0.3,0.1-0.5,0.3-0.8,0.4l-0.4,0.2c-0.2,0.1-0.4,0.2-0.7,0.3l-0.8,0.3
				c-0.2,0.1-0.4,0.2-0.6,0.3l-1.4,0.5c-0.5,0.2-0.9,0.3-1.4,0.5l-1.4,0.4c-0.5,0.1-0.9,0.3-1.4,0.4l-1.1,0.3
				c-0.4,0.1-0.8,0.2-1.1,0.3c-0.4,0.1-0.8,0.2-1.2,0.3h-0.1l0.3,1.5l-0.4-1.4c-0.3,0.1-0.6,0.1-0.9,0.2l-4.1,0.6
				c-0.3,0-0.6,0.1-0.9,0.1c-0.3,0-0.6,0.1-0.9,0.1s-0.6,0-0.9,0.1c-0.3,0-0.6,0-0.9,0s-0.6,0-0.9,0c-0.3,0-0.6,0-0.9,0
				s-0.6,0-0.9,0c-0.3,0-0.6,0-0.9,0s-0.6,0-0.9,0c-0.3,0-0.6,0-0.9,0s-0.6,0-0.9-0.1c-0.3,0-0.6,0-0.9-0.1l-0.1,1.5v-1.5h-0.1
				c-0.2,0-0.5,0-0.7-0.1l-2.2-0.3c-0.3,0-0.6-0.1-0.8-0.1c-0.3,0-0.6-0.1-0.8-0.1c-0.3,0-0.6-0.1-0.8-0.1l-0.8-0.2
				c-0.3-0.1-0.6-0.1-0.8-0.2c-0.3-0.1-0.6-0.1-0.8-0.2c-0.3-0.1-0.6-0.1-0.8-0.2c-0.3-0.1-0.6-0.1-0.8-0.2
				c-0.3-0.1-0.6-0.1-0.8-0.2c-0.3-0.1-0.6-0.2-0.8-0.2c-0.2,0-0.6-0.2-0.8-0.2c-0.3-0.1-0.6-0.2-0.8-0.3c-0.3-0.1-0.6-0.2-0.9-0.3
				c-0.3-0.1-0.6-0.2-0.9-0.3c-0.3-0.1-0.6-0.2-0.9-0.3c-0.3-0.1-0.6-0.2-0.9-0.3c-0.3-0.1-0.6-0.2-0.9-0.4
				c-0.3-0.1-0.6-0.2-0.9-0.4c-0.3-0.1-0.6-0.3-0.9-0.4s-0.6-0.3-0.9-0.4c-0.3-0.1-0.6-0.3-1-0.4c-0.3-0.2-0.6-0.3-1-0.5
				c-0.3-0.2-0.6-0.3-1-0.5c-0.3-0.2-0.6-0.3-1-0.5c-0.4-0.2-0.7-0.4-1-0.6c-0.3-0.2-0.7-0.4-1-0.6c-0.3-0.2-0.7-0.4-1-0.6
				c-0.3-0.2-0.7-0.4-1-0.6c-0.4-0.2-0.8-0.5-1.2-0.7s-0.8-0.5-1.2-0.8c-0.4-0.3-0.8-0.5-1.2-0.8s-0.8-0.5-1.1-0.8
				c-0.5-0.4-1-0.7-1.5-1.1s-1-0.8-1.5-1.1c-0.5-0.4-1-0.8-1.5-1.2c-0.5-0.4-1-0.8-1.4-1.2c-2-1.8-4-3.7-5.8-5.6
				c-1.8-2-3.6-4.1-5.3-6.3c-1.7-2.2-3.2-4.5-4.7-6.8c-1.5-2.4-2.8-4.9-4-7.4c-0.3-0.6-0.6-1.2-0.8-1.8c-0.3-0.6-0.5-1.2-0.8-1.8
				c-0.3-0.6-0.5-1.2-0.8-1.8c-0.2-0.6-0.5-1.2-0.7-1.9c-0.2-0.5-0.3-1-0.5-1.4c-0.2-0.5-0.3-1-0.5-1.5c-0.2-0.5-0.3-1-0.5-1.5
				c-0.1-0.5-0.3-1-0.4-1.5l-1.3-5.3c-0.1-0.4-0.2-0.8-0.2-1.2c-0.1-0.4-0.2-0.8-0.2-1.2c-0.1-0.4-0.1-0.8-0.2-1.2
				c-0.1-0.4-0.1-0.8-0.2-1.2c-0.1-0.4-0.1-0.7-0.2-1.1c-0.1-0.4-0.1-0.7-0.1-1.1s-0.1-0.7-0.1-1.1s-0.1-0.7-0.1-1.1
				s-0.1-0.7-0.1-1.1c0-0.4-0.1-0.7-0.1-1.1s0-0.7-0.1-1.1c0-0.4,0-0.7,0-1.1c0-0.3,0-0.7,0-1s0-0.7,0-1s0-0.7,0-1s0-0.7,0-1
				s0-0.7,0-1s0-0.7,0-1s0-0.7,0.1-1c0-0.3,0-0.7,0.1-1c0-0.3,0.1-0.6,0.1-1c0-0.3,0.1-0.6,0.1-1c0-0.3,0.1-0.6,0.1-1
				c0-0.3,0.1-0.6,0.1-1s0.1-0.6,0.1-1c0-0.3,0.1-0.6,0.1-1c0.1-0.3,0.1-0.6,0.2-1c0.1-0.3,0.1-0.6,0.2-0.9c0.1-0.3,0.1-0.6,0.2-1
				c0.1-0.3,0.1-0.6,0.2-1c0.1-0.3,0.1-0.6,0.2-1c0.1-0.3,0.2-0.6,0.2-0.9c0.1-0.3,0.2-0.7,0.3-1s0.2-0.6,0.3-1
				c0.1-0.3,0.2-0.6,0.3-1c0.1-0.3,0.2-0.6,0.3-1c0.1-0.3,0.2-0.7,0.3-1s0.2-0.7,0.4-1c0.1-0.3,0.2-0.7,0.4-1c0.1-0.3,0.3-0.7,0.4-1
				c0.1-0.4,0.3-0.7,0.4-1.1c0.1-0.4,0.3-0.7,0.5-1.1s0.3-0.7,0.5-1.1c0.2-0.3,0.3-0.7,0.5-1c0.1-0.3,0.3-0.6,0.4-0.9
				s0.3-0.6,0.4-0.9c0.2-0.3,0.3-0.5,0.5-0.8c0.2-0.3,0.3-0.8,0.5-0.8l0,0v-0.1l0,0h0.1l0.3-0.6c0.2-0.4,0.5-0.8,0.7-1.2
				c0.2-0.3,0.4-0.6,0.6-1l0,0l0,0l0,0l0.1-0.1h0.1c0.1-0.2,0.2-0.4,0.3-0.5l0.2-0.3c0,0,0-0.1,0.1-0.1c0.4-0.6,0.8-1.1,1.2-1.7
				l0.3,0.2l0,0l0.2-0.6h-0.2c0.2-0.2,0.3-0.4,0.5-0.6l0.1-0.1l0,0l0,0l0,0l0,0c0.4-0.6,0.9-1.1,1.3-1.6l0,0l0,0l0,0l0,0
				c0.3-0.3,0.5-0.6,0.8-1l0,0l0,0c0.5-0.5,0.9-1,1.4-1.5l0.2-0.2c0.2-0.2,0.4-0.4,0.6-0.6l0,0l0,0l0,0l0,0l0.1-0.1l0,0l0,0l0,0
				c0.5-0.5,1.1-1.1,1.6-1.6l0,0l0.3-0.3c0.1-0.1,0.3-0.2,0.4-0.4l0,0c0.7-0.6,1.5-1.3,2.3-1.9l0,0l0,0l0,0l0,0
				c0.1-0.1,0.3,0,0.4-0.1l0.2,0.1h-0.2h-0.2V337c1-0.5,1.4-0.5,2.1-1.5h0.1l0,0l0,0h0.5l0,0v-0.1c0.1-0.1,0.1-0.2,0.2-0.3l0.1-0.2
				v-0.2l0.4-0.2l0,0l0,0l0,0l-1.6-2.3l-0.2,0.2l0.2-0.2l1.6,2.4l0,0v0.2v0.1c0.6-0.4,1.2-0.7,1.8-1.1l0,0c2.4-1.4,4.9-2.7,7.4-3.6
				c3.7-1.5,7.6-2.5,11.7-3.2c1.1-0.2,2.2-0.3,3.3-0.4c1.1-0.1,2.2-0.2,3.3-0.2c1.1,0,2.2,0,3.3,0s2.2,0.1,3.3,0.2
				c3,0.2,6.1,0.7,9.2,1.5h0.2c4.1,1,8.1,2.4,12,4.2c6.9,3.1,13.3,7.4,19.1,12.7c5.9,5.4,11,11.6,15.1,18.5c4.3,7.2,7.4,14.9,9.4,23
				c1.1,4.6,1.8,9.2,2.1,13.7C-1164.9,405-1165,409.5-1165.6,413.8z"/>
			<path id="XMLID_116_" class="st8" d="M-1281.7,350.9L-1281.7,350.9L-1281.7,350.9L-1281.7,350.9L-1281.7,350.9z"/>
			<path id="XMLID_117_" class="st8" d="M-1258.8,325.9L-1258.8,325.9L-1258.8,325.9z"/>
			<polygon id="XMLID_118_" class="st8" points="-1258.9,325.9 -1258.8,325.9 -1258.8,325.9 			"/>
			<path id="XMLID_119_" class="st8" d="M-1259.3,344.7l0.2-0.1c0.1-0.1,0.2-0.1,0.3-0.2c0.1,0,0.1-0.1,0.2-0.1c0,0,0,0,0.1,0l0,0
				h-0.1l0,0l-0.2,0.1l0,0h-0.1c-0.4,0.2-0.9,0.5-1.3,0.7l0,0l0,0C-1259.9,345.1-1259.6,344.9-1259.3,344.7z"/>
			<path id="XMLID_120_" class="st8" d="M-1246.4,339.9L-1246.4,339.9L-1246.4,339.9z"/>
			<path id="XMLID_123_" class="st8" d="M-1254.7,342.9c0,0-0.9,0-1.4,0.2l-0.2,0.1l0,0l0,0c0.6-0.2-0.2,0.1-0.2,0.1l0,0l0.1-0.1
				c0,0,0,0,0.1,0l0,0l-0.2,0.1l0,0l0,0l0,0l-0.3,0.1l0,0l0,0l0,0l-0.2,0.1c-0.2,0.1-0.3,0.1-0.5,0.2l-0.6,0.3l0,0
				c0.4-0.2,0.8-0.4,1.2-0.6l0,0l0,0l0,0l0,0c-0.4,0.2-0.8,0.4-1.3,0.6c-0.2,0.1-0.3,0.2-0.5,0.2c0,0,0,0-0.1,0s-0.1,0.1-0.2,0.1
				c-0.1,0.1-0.2,0.1-0.3,0.2l-0.2,0.1c-0.3,0.2-0.6,0.3-0.9,0.5c-1.1,0.6-2.1,1.2-3,1.8c-2.8,1.9-5.4,4.1-7.7,6.6s-4.4,5.3-6.2,8.4
				c-1.8,3-3.2,6.3-4.4,9.7c-1.1,3.3-1.9,6.9-2.3,10.4c-0.4,3.6-0.5,7.3-0.3,11c0.2,3.7,0.8,7.5,1.8,11.2c1.6,6.6,4.3,12.9,7.9,18.7
				c3.4,5.6,7.7,10.7,12.6,15.1s10.2,7.9,16,10.5c5.9,2.7,11.9,4.3,18.1,4.9c1,0.1,1.9,0.1,2.8,0.2c0.6,0,1.1,0,1.7,0
				c0.4,0,0.8,0,1.1,0c1,0,1.9-0.1,2.9-0.1c0.9-0.1,1.9-0.2,2.9-0.3c3.5-0.5,6.9-1.3,10.1-2.5c3.1-1.1,6-2.6,8.8-4.4
				c0.3-0.2,0.7-0.4,1-0.7l0.4-0.3c0.2-0.2,0.5-0.3,0.7-0.5l0.2-0.1c0.3-0.2,0.6-0.4,0.9-0.7l0.4-0.3c0.2-0.2,0.4-0.4,0.7-0.5
				c0.3-0.3,0.6-0.5,0.9-0.8l0.4-0.3c0.2-0.2,0.4-0.3,0.6-0.5l0.2-0.2c0.3-0.3,0.5-0.5,0.8-0.8l0.3-0.3c0.2-0.2,0.3-0.3,0.5-0.5
				l0.1-0.1c0.3-0.3,0.5-0.6,0.8-0.9l0.4-0.4c0.2-0.2,0.3-0.4,0.5-0.5l0.2-0.2c0.2-0.3,0.5-0.6,0.7-0.9l0.4-0.4
				c0.1-0.2,0.3-0.4,0.4-0.6c0.3-0.4,0.6-0.8,0.9-1.3l0.3-0.4c0.1-0.1,0.2-0.3,0.3-0.4l0.1-0.1c0.5-0.7,1-1.5,1.4-2.2
				c0.1-0.2,0.3-0.5,0.4-0.7s0.3-0.5,0.4-0.7s0.3-0.5,0.4-0.7s0.3-0.5,0.4-0.7c0.1-0.3,0.3-0.6,0.4-0.9c0.1-0.3,0.3-0.6,0.4-0.9
				s0.3-0.6,0.4-0.9c0.1-0.3,0.3-0.6,0.4-0.9s0.2-0.6,0.3-0.8c0.1-0.3,0.2-0.6,0.3-0.8c0.1-0.3,0.2-0.6,0.3-0.8
				c0.1-0.3,0.2-0.6,0.3-0.8c0.1-0.3,0.2-0.5,0.3-0.8c0.1-0.3,0.2-0.5,0.3-0.8s0.2-0.5,0.2-0.8c0-0.1,0-0.1,0.1-0.2l0,0l0.3-1.3
				v-0.1l0.6-2.5l0,0c0-0.2,0.1-0.5,0.1-0.7c0-0.3,0.1-0.5,0.1-0.8s0.1-0.5,0.1-0.8s0.1-0.5,0.1-0.8s0.1-0.5,0.1-0.8
				s0.1-0.5,0.1-0.8s0.1-0.5,0.1-0.8s0.1-0.5,0.1-0.8s0-0.5,0.1-0.8c0-0.3,0-0.5,0.1-0.8c0-0.3,0-0.5,0-0.8s0-0.5,0-0.8s0-0.6,0-0.8
				c0-0.3,0-0.6,0-0.8c0-0.3,0-0.6,0-0.8c0-0.3,0-0.6,0-0.8c0-0.3,0-0.6,0-0.9s0-0.6,0-0.9s0-0.6-0.1-0.9c0-0.3,0-0.6-0.1-0.9
				c0-0.3-0.1-0.6-0.1-0.9s-0.1-0.6-0.1-0.9s-0.1-0.6-0.1-0.9s-0.1-0.6-0.1-0.9s-0.1-0.7-0.2-1c-0.1-0.3-0.1-0.7-0.2-1
				c-0.1-0.3-0.1-0.7-0.2-1c-0.1-0.3-0.1-0.7-0.2-1l-1.1-4.4c-0.1-0.4-0.2-0.8-0.4-1.2c-0.1-0.4-0.3-0.8-0.4-1.2s-0.3-0.8-0.4-1.2
				c-0.1-0.4-0.3-0.8-0.4-1.2c-0.2-0.5-0.4-1-0.6-1.6c-0.2-0.5-0.4-1-0.6-1.5s-0.4-1-0.7-1.5c-0.2-0.5-0.5-1-0.7-1.5
				c-1-2.1-2.2-4.2-3.4-6.1c-1.2-2-2.6-3.9-4-5.7c-1.4-1.8-2.9-3.6-4.5-5.2s-3.2-3.2-5-4.7c-0.4-0.3-0.8-0.7-1.2-1
				c-0.4-0.3-0.8-0.7-1.3-1c-0.4-0.3-0.8-0.6-1.3-1c-0.4-0.3-0.9-0.6-1.3-0.9c-0.3-0.2-0.7-0.4-1-0.7c-0.3-0.2-0.7-0.4-1-0.6
				s-0.7-0.4-1-0.6s-0.7-0.4-1-0.6s-0.6-0.3-0.9-0.5c-0.3-0.2-0.6-0.3-0.9-0.5s-0.6-0.3-0.9-0.5c-0.3-0.2-0.6-0.3-0.9-0.5
				c-0.3-0.1-0.5-0.3-0.8-0.4c-0.3-0.1-0.5-0.3-0.8-0.4c-0.3-0.1-0.6-0.3-0.8-0.4c-0.3-0.1-0.6-0.2-0.8-0.4
				c-0.3-0.1-0.5-0.2-0.8-0.3c-0.3-0.1-0.5-0.2-0.8-0.3s-0.5-0.2-0.8-0.3c-0.3-0.1-0.5-0.2-0.8-0.3c-0.2-0.1-0.5-0.2-0.7-0.3
				l-0.7-0.3c-0.3-0.1-0.5-0.2-0.7-0.2c-0.3-0.1-0.5-0.2-0.8-0.2c-0.2-0.1-0.5-0.1-0.7-0.2l-0.2-0.1l0,0l-2.7-0.7
				c-0.2-0.1-0.5-0.1-0.7-0.2h-0.1l-0.4-0.1l0,0c-0.1,0-0.2,0-0.3-0.1c-0.2,0-0.5-0.1-0.7-0.1l-1.4-0.2c-0.2,0-0.5-0.1-0.7-0.1
				c-0.2,0-0.5-0.1-0.7-0.1l-2.6-0.3h-0.3c-0.2,0-0.5,0-0.7,0h-0.7c-0.2,0-0.5,0-0.7,0s-0.5,0-0.7,0c-0.5,0-1,0-1.5,0
				c-0.3,0-0.5,0-0.8,0s-0.5,0-0.8,0c-0.3,0-0.5,0-0.8,0s-0.5,0-0.8,0.1c-0.3,0-0.5,0-0.8,0.1c-0.3,0-0.5,0.1-0.8,0.1l-1.9,0.2
				c-0.2,0-0.3,0.1-0.5,0.1l0,0h-0.1l-1.4,0.2l0,0v0.1c-0.1,0-0.2,0-0.2,0v-0.1l-0.1-0.1l-0.2,0.1v0.1c-0.1,0-0.3,0.1-0.4,0.1h-0.2
				l-0.1-0.3l0,0l-0.3,0.3c-0.1,0-0.2,0.1-0.4,0.2c-0.1,0-0.2,0.1-0.3,0.1l0,0l-0.2,0.1l0,0c-0.1,0-0.3,0.1-0.4,0.1l-0.2,0.1l0,0
				l-0.2,0.1v-0.1l-0.9,0.2l0,0v0.1c-0.1,0-0.2,0.1-0.3,0.1l-0.1-0.2l0,0l-1,0.4v0.1c-0.1,0-0.2,0.1-0.3,0.1l0,0l-0.5,0.2l0,0h-0.1
				h-0.1v0.1v0.2l0,0h-0.2c-0.2,0.1-0.4,0.1-0.6,0.2l-0.6,0.2l0,0l0,0 M-1248.8,342.7L-1248.8,342.7L-1248.8,342.7L-1248.8,342.7z
				 M-1181.6,410.3c-0.2,1.8-0.6,3.6-1,5.5l0,0c-0.4,1.4-0.7,2.7-1.1,3.9c-1,3-2.4,6-4,8.7s-3.5,5.2-5.6,7.4
				c-2.1,2.2-4.4,4.1-6.9,5.8c-0.3,0.2-0.7,0.4-1,0.6l-0.2,0.1l0,0l-0.4,0.2c-0.1,0.1-0.3,0.2-0.4,0.3l-0.2,0.1
				c-0.1,0.1-0.2,0.1-0.3,0.2l-0.4,0.2c-0.2,0.1-0.4,0.2-0.6,0.3l-0.7,0.4c-0.1,0-0.2,0.1-0.3,0.1l-0.6,0.3
				c-0.2,0.1-0.4,0.2-0.6,0.3l-0.4,0.1c-0.2,0.1-0.3,0.1-0.5,0.2l-0.6,0.3c-0.1,0.1-0.3,0.1-0.4,0.2l-1,0.4
				c-0.4,0.1-0.7,0.2-1.1,0.4l-1.1,0.3c-0.4,0.1-0.7,0.2-1.1,0.3l-0.9,0.2c-0.3,0.1-0.6,0.1-0.9,0.2s-0.6,0.1-0.9,0.2h-0.2
				c-0.2,0-0.4,0.1-0.7,0.1l-3.2,0.4c-0.2,0-0.5,0-0.7,0.1l-0.7,0.1c-0.2,0-0.5,0-0.7,0c-0.2,0-0.5,0-0.7,0s-0.5,0-0.7,0
				c-0.2,0-0.5,0-0.7,0s-0.5,0-0.7,0c-0.2,0-0.5,0-0.7,0s-0.4,0-0.7,0c-0.2,0-0.4,0-0.7,0h-0.7l-3.9-0.4l-3.8-0.8l-3.9-1.1
				c-0.2-0.1-0.4-0.1-0.7-0.2l-1.3-0.5c-0.2-0.1-0.5-0.2-0.7-0.3l-1.4-0.6c-0.2-0.1-0.5-0.2-0.7-0.3c-0.3-0.1-0.5-0.2-0.7-0.3
				c-0.2-0.1-0.5-0.2-0.7-0.3s-0.5-0.2-0.7-0.4c-0.2-0.1-0.5-0.2-0.7-0.4c-0.3-0.1-0.5-0.3-0.8-0.4c-0.3-0.1-0.5-0.3-0.8-0.4
				s-0.5-0.3-0.8-0.5c-0.3-0.2-0.5-0.3-0.8-0.5s-0.6-0.4-0.9-0.6c-0.3-0.2-0.6-0.4-0.9-0.6s-0.6-0.4-0.9-0.6
				c-0.3-0.2-0.6-0.4-0.9-0.6c-0.4-0.3-0.8-0.6-1.2-0.8c-0.4-0.3-0.8-0.6-1.1-0.9c-0.4-0.3-0.8-0.6-1.1-0.9
				c-0.4-0.3-0.7-0.6-1.1-0.9c-1.6-1.3-3.1-2.8-4.5-4.2c-1.4-1.5-2.8-3.1-4.1-4.7c-1.3-1.6-2.5-3.4-3.6-5.2
				c-1.1-1.8-2.2-3.7-3.1-5.6c-0.2-0.4-0.4-0.9-0.6-1.4s-0.4-0.9-0.6-1.4c-0.2-0.5-0.4-0.9-0.6-1.4s-0.4-0.9-0.6-1.4
				c-0.1-0.4-0.3-0.7-0.4-1.1c-0.1-0.4-0.3-0.7-0.4-1.1c-0.1-0.4-0.2-0.7-0.4-1.1c-0.1-0.4-0.2-0.7-0.3-1.1l-1-4
				c-0.1-0.3-0.1-0.6-0.2-0.9c-0.1-0.3-0.1-0.6-0.2-0.9c-0.1-0.3-0.1-0.6-0.2-0.9c-0.1-0.3-0.1-0.6-0.1-0.9s-0.1-0.6-0.1-0.8
				c0-0.3-0.1-0.6-0.1-0.8c0-0.3-0.1-0.6-0.1-0.8c0-0.3-0.1-0.6-0.1-0.8l-0.1-1.6c0-0.3,0-0.5,0-0.8c0-0.3,0-0.5,0-0.8v-1.5
				c0-0.3,0-0.5,0-0.8v-1.5c0-0.2,0-0.5,0-0.7s0-0.5,0-0.7c0-0.2,0-0.5,0.1-0.7c0-0.2,0-0.5,0.1-0.7c0-0.2,0-0.5,0.1-0.7
				c0-0.2,0.1-0.5,0.1-0.7c0-0.2,0.1-0.5,0.1-0.7s0.1-0.5,0.1-0.7l0.1-0.7c0-0.2,0.1-0.5,0.1-0.7c0-0.2,0.1-0.5,0.1-0.7
				s0.1-0.5,0.1-0.7c0.1-0.2,0.1-0.5,0.2-0.7c0.1-0.2,0.1-0.5,0.2-0.7l0.2-0.7c0.1-0.2,0.1-0.5,0.2-0.7c0.1-0.2,0.1-0.5,0.2-0.7
				c0.1-0.2,0.1-0.5,0.2-0.7c0.1-0.2,0.2-0.5,0.2-0.7c0.1-0.3,0.2-0.5,0.3-0.8c0.1-0.3,0.2-0.5,0.3-0.8s0.2-0.5,0.3-0.8
				c0.1-0.3,0.2-0.5,0.3-0.7c0.1-0.3,0.2-0.5,0.3-0.8c0.1-0.3,0.2-0.5,0.4-0.8c0.1-0.3,0.2-0.5,0.4-0.8c0.1-0.3,0.3-0.5,0.4-0.8
				c0.1-0.2,0.2-0.4,0.3-0.7c0.1-0.2,0.2-0.4,0.3-0.7c0.1-0.3,0.2-0.4,0.4-0.7c0.1-0.2,0.2-0.4,0.4-0.6l0.2-0.3
				c0.1-0.1,0.2-0.3,0.2-0.4c0.2-0.3,0.4-0.6,0.6-0.9c0.1-0.2,0.3-0.4,0.4-0.6c0.1-0.1,0.2-0.3,0.3-0.4l0.2-0.3l0,0
				c0.3-0.5,0.7-0.9,1-1.4l0,0l0,0l0,0l0,0l0,0c0.2-0.2,0.3-0.4,0.5-0.7l0.1-0.1l0,0l0,0c0.3-0.4,0.7-0.8,1-1.2l0,0h-0.2
				c0.2-0.2,0.4-0.5,0.4-0.7l0,0l0,0h0.4c0.4,0,0.7-0.8,1.1-1.1l0,0l0,0l0,0l0.1-0.1c0.1-0.1,0.2-0.2,0.2-0.2l0,0l0.2-0.2l0,0l0,0
				l0,0l0,0l0,0l0,0l0,0l0,0c0.4-0.4,0.8-0.8,1.2-1.2l0,0l0.3-0.2c0.1-0.1,0.2-0.2,0.3-0.2l0,0c0.5-0.5,1.1-1,1.8-1.4h0.1l0.1,0.1
				h0.2l0,0v-0.1l-0.1-0.1l0.3-0.2l0,0l0,0l0,0c0.5-0.4,1-0.7,1.5-1l0,0l0,0l0,0l0.4-0.2l0,0l0.5-0.3l0,0l0,0
				c0.4-0.3,0.9-0.6,1.4-0.8l0,0c1.8-1.1,3.7-2,5.6-2.7c2.8-1.1,5.9-1.9,8.9-2.4c0.8-0.1,1.7-0.2,2.6-0.3c0.8-0.1,1.7-0.1,2.6-0.2
				c0.9,0,1.7,0,2.6,0c0.8,0,1.7,0.1,2.6,0.1c2.3,0.2,4.6,0.6,7,1.1h0.2c3.2,0.7,6.3,1.8,9.2,3.1c5.3,2.4,10.2,5.6,14.7,9.6
				s8.5,8.7,11.7,14c3.3,5.4,5.7,11.2,7.2,17.3c0.8,3.4,1.4,6.9,1.6,10.3C-1181,403.6-1181.2,407-1181.6,410.3z"/>
			<path id="XMLID_127_" class="st8" d="M-1254,342.3L-1254,342.3L-1254,342.3z"/>
			<path id="XMLID_128_" class="st9" d="M-1248.8,342.7L-1248.8,342.7L-1248.8,342.7L-1248.8,342.7z"/>
		</g>
		<g id="XMLID_1_" class="st1">
			<path id="XMLID_125_" class="st8" d="M-1215.9,469.5c-1.9,0-2.9-0.2-3.1-0.3l1.2-4.9c0.1,0,16.8,3.2,59.1-24.5
				c43.8-28.6,61.6-41.8,61.6-80.3c0-39.2-27.5-68.3-54.7-76.7c-27.5-8.5-55,10.5-55.3,10.7c-0.4,0.3-36.7,24.1-51,34
				c-13.9,9.6-20.3,19.2-20.3,19.3l-4.2-2.7c0.3-0.4,6.9-10.5,21.7-20.6c14.4-9.9,50.7-33.8,51-34c1.1-0.8,29.8-20.6,59.6-11.3
				c29,9,58.3,39.9,58.3,81.5c0,41-19.6,55.6-63.8,84.5C-1190.8,466.8-1209.1,469.5-1215.9,469.5z"/>
		</g>
	</g>
</g>
<g id="Layer_2_1_">
	<g id="XMLID_49_">
		<path id="XMLID_50_" class="st2" d="M-319.4,307.6c0-3.6-2.9-6.5-6.5-6.5s-6.5,2.9-6.5,6.5s2.9,6.5,6.5,6.5
			S-319.4,311.2-319.4,307.6z"/>
		<path id="XMLID_538_" class="st2" d="M-103.9,314.1c3.6,0,6.5-2.9,6.5-6.5s-2.9-6.5-6.5-6.5s-6.5,2.9-6.5,6.5
			S-107.5,314.1-103.9,314.1z"/>
		<path id="XMLID_541_" class="st3" d="M-103.9,388.6c-3.8,0-7.2,2.2-8.8,5.3h-67.8c18.3-5.9,35.7-17.3,51.3-33.9
			c16.6-17.6,25.9-35.1,28-39.2c6.1-1.3,10.8-6.7,10.8-13.2c0-7.4-6.1-13.5-13.5-13.5s-13.5,6.1-13.5,13.5c0,5.7,3.6,10.6,8.6,12.6
			c-7.9,14.4-42.8,71.4-100.9,71.4c-1,0-2.1,0-3.1-0.1c-35.5-1.2-62.4-21.4-78.7-38c-14.8-15.1-23.8-30.2-26.5-35
			c3.3-2.5,5.5-6.4,5.5-10.9c0-7.4-6.1-13.5-13.5-13.5s-13.5,6.1-13.5,13.5s6.1,13.5,13.5,13.5c0.5,0,0.9,0,1.4-0.1
			c2.3,4.2,11.6,20.5,27.9,37.2c17.1,17.5,36.3,29.6,56.4,35.7H-317c-1.7-3.2-5-5.3-8.8-5.3c-5.5,0-10,4.5-10,10s4.5,10,10,10
			c4.7,0,8.7-3.3,9.7-7.7h202.6c1.1,4.4,5,7.7,9.7,7.7c5.5,0,10-4.5,10-10C-93.9,393-98.4,388.6-103.9,388.6z M-110.4,307.6
			c0-3.6,2.9-6.5,6.5-6.5s6.5,2.9,6.5,6.5s-2.9,6.5-6.5,6.5S-110.4,311.2-110.4,307.6z M-325.9,314.1c-3.6,0-6.5-2.9-6.5-6.5
			s2.9-6.5,6.5-6.5s6.5,2.9,6.5,6.5S-322.3,314.1-325.9,314.1z"/>
	</g>
	<path id="XMLID_344_" class="st2" d="M-207.5,317.6c0-3.6-2.9-6.5-6.5-6.5s-6.5,2.9-6.5,6.5s2.9,6.5,6.5,6.5
		S-207.5,321.2-207.5,317.6z"/>
	<path id="XMLID_347_" class="st3" d="M-212,326.8l1.5,3.8c6.2-1.7,10.6-7.7,9.8-14.6c-0.7-6.2-5.7-11.1-11.9-11.8
		c-8.1-0.9-15.1,5.5-15.1,13.4c0,6.3,4.3,11.5,10.1,13.1l1.9-3.4L-212,326.8z M-220.4,319.1c-1.1-4.7,3.1-8.9,7.8-7.8
		c2.4,0.5,4.3,2.5,4.8,4.8c1.1,4.7-3.1,8.9-7.8,7.8C-217.9,323.4-219.8,321.4-220.4,319.1z"/>
	<path id="XMLID_351_" class="st3" d="M-210.4,330.6V325h-7v5.7c1.1,0.3,2.2,0.4,3.4,0.4S-211.6,330.9-210.4,330.6z"/>
	<g id="XMLID_47_">
		<path id="XMLID_48_" class="st2" d="M-187.2,255.8h-0.1l0,0h-0.1l0,0c-0.2,0-0.4,0-0.5,0h-52.2c-0.2,0-0.5,0-0.5,0l0,0h-0.1h-0.2
			l0,0c-0.1,0-0.1,0-0.1,0c-1.5,6.7-3.3,15-4.8,23.8c-6.1,33.9-3,39.7-2.4,40.5c13.8,3.4,24,33.9,26.9,42.9h3.8l0.2-32.4
			c1.1,0.3,2.2,0.6,3.4,0.6s2.5-0.3,3.6-0.7l-0.2,32.5v0.5V363h4c1.2-4,3.8-11.5,7.3-19.3c6.9-15.8,13.3-23.1,19.9-23.5
			c0.7-1.3,2.9-8.3-3-40.6C-184,270.8-185.7,262.5-187.2,255.8z"/>
		<path id="XMLID_64_" class="st2" d="M-240.2,248.9h0.8h50.5h1c1.9,0,3.7-0.8,5-2c1.3-1.4,2.8-4.2,2.8-6.2c0-4.3-3.5-7.8-7.8-7.8
			H-240c-3.9,0-7.4,2.8-7.9,6.7c-0.3,2.1,0.3,4,1.4,5.5C-245.1,246.8-242.5,248.9-240.2,248.9z"/>
		<path id="XMLID_334_" class="st3" d="M-175.6,277.7c-1.6-8.9-3.5-17.6-5-24.3c4.4-2.6,7.5-7.4,7.5-12.9c0-8.1-6.5-14.7-14.6-14.8
			v-73.8h-7v74h-39v-74h-7v73.9c-7.9,0.2-14.3,6.8-14.3,14.8c0,5.3,2.8,9.9,6.9,12.5l0,0c0,0,0,0,0.1,0.1c0.1,0,0.1,0.1,0.2,0.1
			c-4.9,21.6-12.7,60.7-6.6,70.5c1.3,2.2,3.1,2.9,4.3,3.2c8.8,1.9,18.6,25.8,22.7,40.5l0.7,2.4h25.3l0.7-2.4
			c5.8-19.6,15.9-40.6,21.8-40.6c1.9,0,3.6-0.8,4.9-2.4C-171.4,321.2-169.2,312.8-175.6,277.7z M-239.7,248.9h-0.5
			c-2.3,0-4.9-2.1-6.4-3.7c-1.1-1.5-1.7-3.4-1.4-5.5c0.5-3.9,4-6.7,7.9-6.7h52.1c4.3,0,7.8,3.4,7.8,7.8c0,2.1-1.5,4.8-2.8,6.2
			c-1.4,1.2-3.1,2-5,2h-0.7 M-179.4,320.1c-6.7,0.4-13,7.7-19.9,23.5c-3.4,7.9-6.1,15.3-7.3,19.3h-4v0.5v-0.5l0.2-33.2
			c-1.1,0.3-2.4,1.4-3.6,1.4c-1.2,0-2.3-1.4-3.4-1.7l-0.2,33.5h-3.8c-2.9-9-13.1-39.5-26.9-42.9c-0.6-0.7-3.7-6.5,2.4-40.5
			c1.6-8.7,3.3-17,4.8-23.8h0.1l0,0h0.2h0.1l0,0c0,0,0.3,0,0.5,0h52.2c0.2,0,0.4,0,0.5,0l0,0h0.1l0,0h0.1c1.5,6.7,3.2,14.9,4.8,23.6
			C-176.5,311.8-178.7,318.8-179.4,320.1z"/>
	</g>
</g>
</svg>
