<?xml version="1.0" encoding="utf-8"?>
<!-- Generator: Adobe Illustrator 19.0.0, SVG Export Plug-In . SVG Version: 6.00 Build 0)  -->
<svg version="1.1" id="Layer_1" xmlns="http://www.w3.org/2000/svg" xmlns:xlink="http://www.w3.org/1999/xlink" x="0px" y="0px"
	 viewBox="-329 131 300 300" style="enable-background:new -329 131 300 300;" xml:space="preserve">
<style type="text/css">
	.st0{fill:none;}
	.st1{fill:#4168B1;}
</style>
<g id="XMLID_4_">
	<path id="XMLID_209_" class="st0" d="M-233.3,277.4c0-12.2-10-22.1-22.2-22.1s-22.2,9.9-22.2,22.1c0,12.2,10,22.1,22.2,22.1
		C-243.2,299.5-233.3,289.6-233.3,277.4z"/>
	<g id="XMLID_184_">
		<path id="XMLID_187_" class="st0" d="M-233.6,303.6h-21.9h-21.9c-13.5,0-25.4,11.6-25.4,25.2v3.7c6,5.7,13,10.4,20,13.8v-15.7h5
			v17.5c7,2.6,14.7,3.9,22.5,3.9s15.5-1.4,22.5-3.9v-17.5h4v15.7c8-3.4,14-8.1,19-13.8v-3.7C-209.8,315.2-220.1,303.6-233.6,303.6z"
			/>
		<path id="XMLID_201_" class="st0" d="M-233.3,277.4c0-12.2-10-22.1-22.2-22.1s-22.2,9.9-22.2,22.1c0,12.2,10,22.1,22.2,22.1
			C-243.2,299.5-233.3,289.6-233.3,277.4z"/>
		<g id="XMLID_188_">
			<path id="XMLID_198_" class="st0" d="M-233.6,303.6h-21.9h-21.9c-13.5,0-25.4,11.6-25.4,25.2v3.7c6,5.7,13,10.4,20,13.8v-15.7h5
				v17.5c7,2.6,14.7,3.9,22.5,3.9s15.5-1.4,22.5-3.9v-17.5h4v15.7c8-3.4,14-8.1,19-13.8v-3.7C-209.8,315.2-220.1,303.6-233.6,303.6z
				"/>
			<path id="XMLID_199_" class="st0" d="M-233.3,277.4c0-12.2-10-22.1-22.2-22.1s-22.2,9.9-22.2,22.1c0,12.2,10,22.1,22.2,22.1
				C-243.2,299.5-233.3,289.6-233.3,277.4z"/>
			<path id="XMLID_200_" class="st0" d="M-204.7,328.2c0,0.2,0,0.4,0,0.6C-204.7,328.6-204.7,328.4-204.7,328.2L-204.7,328.2z"/>
			<path id="XMLID_202_" class="st0" d="M-255.5,222.2c-35.8,0-64.9,29.1-64.9,64.9c0,15.2,5.3,29.3,14.1,40.3l0,0v0.1
				c0.9-15.2,13.6-28,29-28h7.1c-7.2-5-11.9-12.9-11.9-22.2c0-14.7,12-26.6,26.7-26.6s26.7,11.9,26.7,26.6c0,9.3-4.7,17.1-11.9,22.1
				h7.1c15.3,0,28,12.7,29.1,27.7c8.7-11.1,14-25,14-40.2C-190.6,251.3-219.7,222.2-255.5,222.2z"/>
			<path id="XMLID_212_" class="st1" d="M-255.5,217.7c-38.2,0-69.4,31.1-69.4,69.4c0,18.2,7,34.7,18.5,47.1c1.3,1.5,3.2,3,4.5,4.4
				c5.7,5.2,12.4,9.4,19.7,12.5c1.5,0.6,2.9,1.2,4.5,1.7c7,2.4,14.5,3.7,22.3,3.7s15.2-1.3,22.2-3.6c1.5-0.5,3-1.1,4.5-1.7
				c7.3-3,14-7.3,19.7-12.5c1.3-1.4,3.2-2.9,4.5-4.4c11.4-12.4,18.5-28.9,18.5-47.1C-186.1,248.8-217.3,217.7-255.5,217.7z
				 M-209.8,332.4c-5,5.8-11,10.5-19,13.8v-15.6h-4v17.5c-7,2.5-14.7,3.9-22.5,3.9s-15.5-1.4-22.5-3.9v-17.5h-5v15.6
				c-7-3.4-14-8.1-20-13.8v-3.7c0-13.5,11.9-25.2,25.4-25.2h21.9h21.9c13.5,0,23.8,11.6,23.8,25.2L-209.8,332.4L-209.8,332.4z
				 M-277.7,277.4c0-12.2,10-22.1,22.2-22.1s22.2,9.9,22.2,22.1c0,12.2-10,22.1-22.2,22.1S-277.7,289.7-277.7,277.4z M-233.6,299.6
				h-7.1c7.2-5,11.9-12.9,11.9-22.1c0-14.7-12-26.6-26.7-26.6s-26.7,11.9-26.7,26.6c0,9.3,4.7,17.1,11.9,22.1h-7.1
				c-15.4,0-28,12.8-29,28v-0.1l0,0c-8.8-11.1-14.1-25.1-14.1-40.3c0-35.8,29.1-64.9,64.9-64.9s64.9,29.1,64.9,64.9
				c0,15.2-5.2,29.2-14,40.2C-205.6,312.3-218.3,299.6-233.6,299.6z"/>
		</g>
	</g>
</g>
<g id="XMLID_1_">
	<path id="XMLID_7_" class="st0" d="M-116.5,352.6H-131c-9.3,0-17.6,5.5-21.8,13.2c7.1,8,17.5,13,29,13s21.9-5.1,29-13.1
		c0,0,0,0.1,0.1,0.1C-98.8,358.1-107.2,352.6-116.5,352.6z"/>
	<path id="XMLID_25_" class="st0" d="M-123.5,317.6c-8.2,0-14.9,6.7-14.9,14.9c0,8.2,6.7,14.9,14.9,14.9s14.9-6.7,14.9-14.9
		C-108.6,324.3-115.3,317.6-123.5,317.6z"/>
	<path id="XMLID_26_" class="st0" d="M-123.7,301.1c-21.4,0-38.8,17.4-38.8,38.8c0,8.2,2.5,15.7,6.8,22l0,0
		c4.5-7,12.2-12.5,20.8-13.8c-4.8-3.5-8-9.2-8-15.6c0-10.7,8.7-19.3,19.3-19.3s19.3,8.7,19.3,19.3c0,6.4-3.2,12.2-8.1,15.7
		c8.6,1.4,16.1,6.7,20.5,13.7l0,0c4.3-6.3,6.8-13.8,6.8-22C-84.9,318.5-102.3,301.1-123.7,301.1z"/>
	<path id="XMLID_30_" class="st1" d="M-123.7,296.6c-23.9,0-43.3,19.4-43.3,43.3c0,10,3.4,19.1,9.1,26.4c1.1,1.4,2.2,2.7,3.4,3.9
		c7.9,8,18.8,13,30.8,13c12.1,0,23-5,30.8-13c1.2-1.2,2.3-2.5,3.4-3.9c5.7-7.3,9.1-16.5,9.1-26.4C-80.5,316-99.9,296.6-123.7,296.6z
		 M-123.7,378.7c-11.5,0-21.9-4.9-29-12.9c4.2-7.7,12.4-13.2,21.8-13.2h14.5c9.3,0,17.7,5.5,21.8,13.1c0,0,0,0-0.1,0
		C-101.8,373.7-112.2,378.7-123.7,378.7z M-123.5,347.3c-8.2,0-14.9-6.7-14.9-14.9c0-8.2,6.7-14.9,14.9-14.9s14.9,6.7,14.9,14.9
		C-108.6,340.6-115.3,347.3-123.5,347.3z M-91.8,361.9L-91.8,361.9c-4.4-7-11.9-12.4-20.5-13.7c4.9-3.5,8.1-9.2,8.1-15.7
		c0-10.7-8.7-19.3-19.3-19.3s-19.3,8.7-19.3,19.3c0,6.4,3.1,12.1,8,15.6c-8.7,1.3-16.3,6.8-20.8,13.8l0,0c-4.3-6.3-6.8-13.8-6.8-22
		c0-21.4,17.4-38.8,38.8-38.8s38.8,17.4,38.8,38.8C-84.9,348-87.5,355.6-91.8,361.9z"/>
</g>
<g id="XMLID_3_">
	<path id="XMLID_20_" class="st0" d="M-69.2,236.6h-14.5c-9.3,0-17.6,5.7-21.8,13.4c7.1,8,17.5,13,29,13s21.9-5.1,29-13.1
		c0,0,0,0,0.1-0.1C-51.5,242.3-59.9,236.6-69.2,236.6z"/>
	<path id="XMLID_19_" class="st0" d="M-76.2,201.9c-8.2,0-14.9,6.7-14.9,14.9c0,8.2,6.7,14.9,14.9,14.9s14.9-6.7,14.9-14.9
		C-61.3,208.6-68,201.9-76.2,201.9z"/>
	<path id="XMLID_15_" class="st0" d="M-76.4,185.4c-21.4,0-38.8,17.4-38.8,38.8c0,8.2,2.5,15.7,6.8,22l0,0
		c4.5-7,12.2-12.5,20.8-13.8c-4.8-3.5-8-9.2-8-15.6c0-10.7,8.7-19.3,19.3-19.3s19.3,8.7,19.3,19.3c0,6.4-3.2,12.2-8.1,15.7
		c8.6,1.4,16.1,6.7,20.5,13.7l0,0c4.3-6.3,6.8-13.8,6.8-22C-37.6,202.8-55,185.4-76.4,185.4z"/>
	<path id="XMLID_8_" class="st1" d="M-76.4,180.9c-23.9,0-43.3,19.4-43.3,43.3c0,10,3.4,19.1,9.1,26.4c1.1,1.4,2.2,2.7,3.4,3.9
		c7.9,8,18.8,13,30.8,13c12.1,0,23-5,30.8-13c1.2-1.2,2.3-2.5,3.4-3.9c5.7-7.3,9.1-16.5,9.1-26.4C-33.2,200.3-52.6,180.9-76.4,180.9
		z M-76.4,263c-11.5,0-21.9-5-29-13c4.2-7.7,12.4-13.4,21.8-13.4h14.5c9.3,0,17.7,5.7,21.8,13.3c0,0,0,0-0.1,0.1
		C-54.5,258-64.9,263-76.4,263z M-76.2,231.6c-8.2,0-14.9-6.7-14.9-14.9c0-8.2,6.7-14.9,14.9-14.9s14.9,6.7,14.9,14.9
		C-61.3,224.9-68,231.6-76.2,231.6z M-44.4,246.1C-44.4,246.2-44.5,246.2-44.4,246.1c-4.4-7-11.9-12.4-20.5-13.7
		c4.9-3.5,8.1-9.2,8.1-15.7c0-10.7-8.7-19.3-19.3-19.3s-19.3,8.7-19.3,19.3c0,6.4,3.1,12.1,8,15.6c-8.7,1.3-16.3,6.8-20.8,13.8l0,0
		c-4.3-6.3-6.8-13.8-6.8-22c0-21.4,17.4-38.8,38.8-38.8s38.8,17.4,38.8,38.8C-37.6,232.3-40.1,239.9-44.4,246.1z"/>
</g>
<g id="XMLID_2_">
	
		<rect id="XMLID_44_" x="-158.7" y="203.4" transform="matrix(-0.2726 -0.9621 0.9621 -0.2726 -434.0023 160.1956)" class="st1" width="4.5" height="81.6"/>
</g>
<g id="XMLID_21_">
	
		<rect id="XMLID_43_" x="-193.5" y="305" transform="matrix(-0.8609 -0.5087 0.5087 -0.8609 -478.5678 483.5863)" class="st1" width="40.6" height="4.5"/>
</g>
</svg>
